\relax 
\providecommand\hyper@newdestlabel[2]{}
\providecommand\HyperFirstAtBeginDocument{\AtBeginDocument}
\HyperFirstAtBeginDocument{\ifx\hyper@anchor\@undefined
\global\let\oldcontentsline\contentsline
\gdef\contentsline#1#2#3#4{\oldcontentsline{#1}{#2}{#3}}
\global\let\oldnewlabel\newlabel
\gdef\newlabel#1#2{\newlabelxx{#1}#2}
\gdef\newlabelxx#1#2#3#4#5#6{\oldnewlabel{#1}{{#2}{#3}}}
\AtEndDocument{\ifx\hyper@anchor\@undefined
\let\contentsline\oldcontentsline
\let\newlabel\oldnewlabel
\fi}
\fi}
\global\let\hyper@last\relax 
\gdef\HyperFirstAtBeginDocument#1{#1}
\providecommand\HyField@AuxAddToFields[1]{}
\providecommand\HyField@AuxAddToCoFields[2]{}
\citation{Gao2016,Now1976}
\citation{Cir2013,Gao2016,Yu2016}
\citation{Nav2011,Wan2015}
\citation{Gao2016,Yu2016}
\citation{Gaw2016,Rot2016}
\citation{Nav2014}
\citation{Ama2013}
\citation{Gaw2016}
\@writefile{toc}{\contentsline {section}{\numberline {1}Introduction}{1}{section.1}}
\newlabel{intro}{{1}{1}{Introduction}{section.1}{}}
\citation{Bak2016,Gar2015,Zha2016,Zhang2013}
\citation{Gaw2016,Hou2012,Loh2014,Ni2014,Wan2014,Xu2012}
\citation{Now1976}
\citation{Dav2017,Gao2016}
\citation{Zha2016,Gar2015}
\citation{Dav2016,Gao2016,Gaw2016}
\citation{Dav2017,Gao2016,Now1976}
\citation{Gaw2016}
\citation{Gar2015}
\citation{Bak2016}
\citation{Zha2016}
\@writefile{toc}{\contentsline {section}{\numberline {2}Specific Aims}{2}{section.2}}
\citation{Ama2013,Gaw2016,Li2012}
\citation{Dey2015}
\citation{Dey2015}
\citation{Dey2015}
\citation{Hol2014}
\citation{Wan2014}
\@writefile{lof}{\contentsline {figure}{\numberline {1}{\ignorespaces Figure from Dey et al. 2015\nobreakspace  {}\cite  {Dey2015} illustrating their findings between CNVs and gene expression. They show in c. that the noisiest genes are associated with low copy-number.\relax }}{4}{figure.caption.1}}
\@writefile{toc}{\contentsline {section}{\numberline {3}Single-Cell Copy-Number Identification Using Deep Learning}{4}{section.3}}
\newlabel{deepLearning}{{3}{4}{Single-Cell Copy-Number Identification Using Deep Learning}{section.3}{}}
\citation{Xie2016_dl,Vin2010_dl,Owhadi2015_dl,Kir2016_dl,Dil2016_dl}
\@writefile{toc}{\contentsline {section}{\numberline {4}Simultaneous Clustering and Classification of Cancer Cells afflicted by Copy-Number Variations, by Considering All Cells Jointly}{5}{section.4}}
\@writefile{lof}{\contentsline {figure}{\numberline {2}{\ignorespaces Approach to jointly infer cell-clone assignments, and clone copy-number profiles.\relax }}{5}{figure.caption.2}}
\providecommand*\caption@xref[2]{\@setref\relax\@undefined{#1}}
\newlabel{pipeline3}{{2}{5}{Approach to jointly infer cell-clone assignments, and clone copy-number profiles.\relax }{figure.caption.2}{}}
\citation{Xie2016_dl}
\citation{Xie2016_dl}
\citation{Xie2016_dl}
\citation{Xie2016_dl}
\@writefile{toc}{\contentsline {subsection}{\numberline {4.1}Feature Extraction and Clustering}{6}{subsection.4.1}}
\citation{Xie2016_dl}
\citation{Xie2016_dl}
\citation{MNIST_1998}
\citation{STL-10_2011}
\citation{REUTERS_2004}
\citation{Xie2016_dl}
\citation{Vin2010_dl}
\citation{Hin2006}
\citation{Xie2016_dl}
\citation{Vin2010_dl}
\@writefile{lof}{\contentsline {figure}{\numberline {3}{\ignorespaces Diagram of Deep Embedded Clustering algorithm with $R$ corrected read count matrix input. Modified diagram from Xie et al.\ 2016\nobreakspace  {}\cite  {Xie2016_dl}. Green box associates this figure with the green box in Figure\nobreakspace  {}\ref  {pipeline3}.\relax }}{7}{figure.caption.3}}
\newlabel{dec}{{3}{7}{Diagram of Deep Embedded Clustering algorithm with $R$ corrected read count matrix input. Modified diagram from Xie et al.\ 2016~\cite {Xie2016_dl}. Green box associates this figure with the green box in Figure~\ref {pipeline3}.\relax }{figure.caption.3}{}}
\citation{Xie2016_dl}
\citation{Nav2011,Bas2012,Zha2016}
\@writefile{toc}{\contentsline {subsection}{\numberline {4.2}Segmentation for Each Cluster}{8}{subsection.4.2}}
\@writefile{toc}{\contentsline {subsection}{\numberline {4.3}Segmentation for Each Cluster}{8}{subsection.4.3}}
\@writefile{lof}{\contentsline {figure}{\numberline {4}{\ignorespaces Depiction of convolutional neural network used to segment multiple musical signals concurrently, along with windowed input and full output depiction.\relax }}{8}{figure.caption.4}}
\newlabel{music}{{4}{8}{Depiction of convolutional neural network used to segment multiple musical signals concurrently, along with windowed input and full output depiction.\relax }{figure.caption.4}{}}
\citation{schluter2014improved}
\citation{neuner2015design}
\citation{schluter2014improved}
\citation{neuner2015design}
\citation{schluter2014improved}
\citation{lyu2016learning,schluter2014improved,neuner2015design,zhang2015degradation}
\citation{schluter2014improved}
\citation{schluter2014improved}
\citation{schluter2014improved}
\citation{schluter2014improved}
\citation{schluter2014improved}
\citation{schluter2014improved}
\citation{schluter2014improved}
\citation{schluter2014improved}
\citation{schluter2014improved}
\citation{schluter2014improved}
\citation{schluter2014improved}
\@writefile{lof}{\contentsline {figure}{\numberline {5}{\ignorespaces Output of CNN for two spectrograms. Gray indicates parallel to this approach. This figure is modified from Schluter et al.\ 2014\nobreakspace  {}\cite  {schluter2014improved}.\relax }}{11}{figure.caption.5}}
\newlabel{music_output}{{5}{11}{Output of CNN for two spectrograms. Gray indicates parallel to this approach. This figure is modified from Schluter et al.\ 2014~\cite {schluter2014improved}.\relax }{figure.caption.5}{}}
\citation{Keu2016,sak2014long,mandic2001recurrent}
\@writefile{toc}{\contentsline {subsection}{\numberline {4.4}Compute $f()$ for Each Cluster}{12}{subsection.4.4}}
\citation{marchi2017deep}
\@writefile{lof}{\contentsline {figure}{\numberline {6}{\ignorespaces Illustration of a Recurrent Neural Network with \emph  {either} long short-term memory \textit  {or} the hyperbolic tangent function. $i_t$ is the input gate, $f_t$ is the forget gate, and $o_t$ is the output gate.\relax }}{13}{figure.caption.6}}
\newlabel{lstm_rnn}{{6}{13}{Illustration of a Recurrent Neural Network with \emph {either} long short-term memory \textit {or} the hyperbolic tangent function. $i_t$ is the input gate, $f_t$ is the forget gate, and $o_t$ is the output gate.\relax }{figure.caption.6}{}}
\@writefile{toc}{\contentsline {subsection}{\numberline {4.5}Produce $P$}{14}{subsection.4.5}}
\@writefile{lof}{\contentsline {figure}{\numberline {7}{\ignorespaces Illustration of proposed method.\leavevmode {\color  {blue}Change this figure to be more correct.}\relax }}{14}{figure.caption.7}}
\newlabel{example_pipeline}{{7}{14}{Illustration of proposed method.\ques {Change this figure to be more correct.}\relax }{figure.caption.7}{}}
\citation{Ord2016}
\@writefile{toc}{\contentsline {section}{\numberline {5}Alternative Approach to Assign Copy-Number Directly to Cells Without Segmentation}{15}{section.5}}
\newlabel{other_segmentation_methods}{{5}{15}{Alternative Approach to Assign Copy-Number Directly to Cells Without Segmentation}{section.5}{}}
\@writefile{lof}{\contentsline {figure}{\numberline {8}{\ignorespaces Schematic diagram of a CRNN with $l$ convolution layers, 2 recurrent, and one softmax layer. Both a form of segmentation and classification are learned during training.\relax }}{15}{figure.caption.8}}
\newlabel{crnn_model}{{8}{15}{Schematic diagram of a CRNN with $l$ convolution layers, 2 recurrent, and one softmax layer. Both a form of segmentation and classification are learned during training.\relax }{figure.caption.8}{}}
\@writefile{toc}{\contentsline {subsection}{\numberline {5.1}Comparison between LSTM RNN, CNN, and CRNN}{15}{subsection.5.1}}
\citation{wang_dl2017}
\citation{zeng2014_dl}
\citation{yang_dl2016}
\citation{wang_dl2017}
\citation{zeng2014_dl}
\citation{yang_dl2016}
\@writefile{toc}{\contentsline {section}{\numberline {6}Related Work on Similar Iterative Deep Learning Approaches}{16}{section.6}}
\@writefile{lof}{\contentsline {figure}{\numberline {9}{\ignorespaces Three iterative methods for joint feature selection and classification\relax }}{16}{figure.caption.9}}
\newlabel{3_methods}{{9}{16}{Three iterative methods for joint feature selection and classification\relax }{figure.caption.9}{}}
\citation{schluter2014improved}
\citation{schluter2014improved}
\citation{schluter2014improved}
\citation{schluter2014improved}
\citation{schluter2014improved}
\citation{schluter2014improved}
\citation{schluter2014improved}
\citation{schluter2014improved}
\citation{schluter2014improved}
\citation{schluter2014improved}
\citation{schluter2014improved}
\citation{schluter2014improved}
\citation{Keu2016,sak2014long,mandic2001recurrent}
\@writefile{lof}{\contentsline {figure}{\numberline {10}{\ignorespaces Output of CNN for two spectrograms. Gray indicates parallel to this approach. This figure is modified from Schluter et al.\ 2014\nobreakspace  {}\cite  {schluter2014improved}.\relax }}{19}{figure.caption.10}}
\newlabel{music_output}{{10}{19}{Output of CNN for two spectrograms. Gray indicates parallel to this approach. This figure is modified from Schluter et al.\ 2014~\cite {schluter2014improved}.\relax }{figure.caption.10}{}}
\@writefile{toc}{\contentsline {subsection}{\numberline {6.1}Compute f() for Each Cluster}{20}{subsection.6.1}}
\@writefile{lof}{\contentsline {figure}{\numberline {11}{\ignorespaces Illustration of a Recurrent Neural Network with \emph  {either} long short-term memory \textit  {or} the hyperbolic tangent function. $i_t$ is the input gate, $f_t$ is the forget gate, and $o_t$ is the output gate.\relax }}{20}{figure.caption.11}}
\newlabel{lstm_rnn}{{11}{20}{Illustration of a Recurrent Neural Network with \emph {either} long short-term memory \textit {or} the hyperbolic tangent function. $i_t$ is the input gate, $f_t$ is the forget gate, and $o_t$ is the output gate.\relax }{figure.caption.11}{}}
\@writefile{toc}{\contentsline {subsection}{\numberline {6.2}Compute P}{21}{subsection.6.2}}
\@writefile{lof}{\contentsline {figure}{\numberline {12}{\ignorespaces Depiction of convolutional neural network used to segment multiple musical signals concurrently, along with windowed input and full output depiction.\relax }}{21}{figure.caption.12}}
\newlabel{example}{{12}{21}{Depiction of convolutional neural network used to segment multiple musical signals concurrently, along with windowed input and full output depiction.\relax }{figure.caption.12}{}}
\@writefile{toc}{\contentsline {section}{\numberline {7}Validation}{21}{section.7}}
\citation{Sin2016}
\citation{Sin2016}
\citation{wang_dl2017}
\citation{jiang_dl2016}
\@writefile{toc}{\contentsline {section}{\numberline {8}\leavevmode {\color  {red}Related Work}}{22}{section.8}}
\citation{coates_dl2011}
\citation{wang_dl2017}
\citation{yang_dl2016}
\citation{yang_dl2016}
\citation{Gar2015}
\@writefile{toc}{\contentsline {section}{\numberline {9}Limitations and Extensions}{23}{section.9}}
\citation{sun2016unseen}
\@writefile{lof}{\contentsline {figure}{\numberline {13}{\ignorespaces Using a Recurrent Network Tensor Network to map the local and more global events of each clone, given the cells of the clone.\relax }}{24}{figure.caption.13}}
\newlabel{hierarchy}{{13}{24}{Using a Recurrent Network Tensor Network to map the local and more global events of each clone, given the cells of the clone.\relax }{figure.caption.13}{}}
\citation{wang_dl2017}
\citation{jiang_dl2016}
\citation{Ng2001}
\citation{Tib2001}
\citation{Ng2001}
\@writefile{lof}{\contentsline {figure}{\numberline {14}{\ignorespaces Integrate SNV data as features into the approach as another signal.\relax }}{25}{figure.caption.14}}
\newlabel{snv_integration}{{14}{25}{Integrate SNV data as features into the approach as another signal.\relax }{figure.caption.14}{}}
\@writefile{toc}{\contentsline {subsection}{\numberline {9.1}Determining and Inferring $k$}{25}{subsection.9.1}}
\newlabel{inferring_k}{{9.1}{25}{Determining and Inferring $k$}{subsection.9.1}{}}
\@writefile{toc}{\contentsline {subsection}{\numberline {9.2}\leavevmode {\color  {red}Comparison between LSTM RNN, CNN, and CRNN}}{25}{subsection.9.2}}
\citation{Dil2016}
\citation{jiang_dl2016}
\citation{jiang_dl2016}
\citation{coates_dl2011}
\citation{wang_dl2017}
\citation{yang_dl2016}
\citation{yang_dl2016}
\citation{sun2016unseen}
\@writefile{toc}{\contentsline {section}{\numberline {10}Limitations and Extensions}{27}{section.10}}
\citation{wang_dl2017}
\@writefile{lof}{\contentsline {figure}{\numberline {15}{\ignorespaces Using a Recurrent Network Tensor Network to map the local and more global events of each clone, given the cells of the clone.\relax }}{28}{figure.caption.15}}
\newlabel{hierarchy}{{15}{28}{Using a Recurrent Network Tensor Network to map the local and more global events of each clone, given the cells of the clone.\relax }{figure.caption.15}{}}
\@writefile{lof}{\contentsline {figure}{\numberline {16}{\ignorespaces Integrate SNV data as features into the approach as another signal.\relax }}{28}{figure.caption.16}}
\newlabel{snv_integration}{{16}{28}{Integrate SNV data as features into the approach as another signal.\relax }{figure.caption.16}{}}
\citation{jiang_dl2016}
\citation{Ng2001}
\citation{Tib2001}
\citation{Ng2001}
\citation{Dil2016}
\citation{jiang_dl2016}
\citation{jiang_dl2016}
\@writefile{toc}{\contentsline {subsection}{\numberline {10.1}Determining and Inferring $k$}{29}{subsection.10.1}}
\newlabel{inferring_k}{{10.1}{29}{Determining and Inferring $k$}{subsection.10.1}{}}
\citation{Banerjee2005}
\@writefile{toc}{\contentsline {subsection}{\numberline {10.2}DEC vs. VAE}{30}{subsection.10.2}}
\@writefile{toc}{\contentsline {subsection}{\numberline {10.3}Considerations for DEC Improvement}{30}{subsection.10.3}}
\citation{kingma2013auto}
\citation{Gar2015}
\citation{Bak2016}
\citation{Cai2014}
\citation{Gao2016}
\citation{Gao2016}
\citation{Cai2014}
\citation{Gao2016}
\citation{Gao2016}
\citation{Gao2016}
\@writefile{toc}{\contentsline {section}{\numberline {11}Inferring Copy-Number Profiles with Current SCS Methods}{31}{section.11}}
\newlabel{currentMethods}{{11}{31}{Inferring Copy-Number Profiles with Current SCS Methods}{section.11}{}}
\@writefile{toc}{\contentsline {subsection}{\numberline {11.1}Data Details: Patients T4, T5, T7}{31}{subsection.11.1}}
\citation{Gao2016}
\citation{Gao2016}
\citation{Bas2012}
\@writefile{toc}{\contentsline {subsection}{\numberline {11.2}Goals of Analysis}{32}{subsection.11.2}}
\@writefile{toc}{\contentsline {subsection}{\numberline {11.3}Running Other Methods}{32}{subsection.11.3}}
\newlabel{other_methods}{{11.3}{32}{Running Other Methods}{subsection.11.3}{}}
\citation{Bas2012}
\citation{Bak2016}
\citation{Gar2015}
\citation{Gao2016}
\citation{Gao2016}
\citation{Gao2016}
\@writefile{toc}{\contentsline {subsection}{\numberline {11.4}Results Comparing Current Methods}{33}{subsection.11.4}}
\newlabel{prelim_dl}{{11.4}{33}{Results Comparing Current Methods}{subsection.11.4}{}}
\citation{Nav2011}
\citation{Nav2011}
\@writefile{lof}{\contentsline {figure}{\numberline {17}{\ignorespaces A. Percent similarity (\% of positions with the same copy-number called) between cells sequenced in patients T4, T5, and T7, between AneuFinder and Ginkgo. B. Log2 copy-number ratio plots as reported by Gao et al.\ 2016\nobreakspace  {}\cite  {Gao2016}. Clones identified (clone A, B or C) indicated on the left. Single cells are plotted on the y-axis, and CNVs are plotted on the x-axis, ordered by genomic location. C. Percent similarity between cells when scaled by mode (see Section\nobreakspace  {}\ref  {scaling}) in patients T4, T5, and T7, between AneuFinder and Ginkgo. D. Several examples of copy-number profiles which correspond to A. Ginkgo occasionally infers extremely unlikely copy-numbers for very small segments of the genome, which results in small peaks throughout profiles.\relax }}{34}{figure.caption.17}}
\newlabel{T456}{{17}{34}{A. Percent similarity (\% of positions with the same copy-number called) between cells sequenced in patients T4, T5, and T7, between AneuFinder and Ginkgo. B. Log2 copy-number ratio plots as reported by Gao et al.\ 2016~\cite {Gao2016}. Clones identified (clone A, B or C) indicated on the left. Single cells are plotted on the y-axis, and CNVs are plotted on the x-axis, ordered by genomic location. C. Percent similarity between cells when scaled by mode (see Section~\ref {scaling}) in patients T4, T5, and T7, between AneuFinder and Ginkgo. D. Several examples of copy-number profiles which correspond to A. Ginkgo occasionally infers extremely unlikely copy-numbers for very small segments of the genome, which results in small peaks throughout profiles.\relax }{figure.caption.17}{}}
\@writefile{toc}{\contentsline {subsubsection}{\numberline {11.4.1}Copy-Number Peaks in Ginkgo Output and Relationship to Bin Size}{34}{subsubsection.11.4.1}}
\newlabel{peaks}{{11.4.1}{34}{Copy-Number Peaks in Ginkgo Output and Relationship to Bin Size}{subsubsection.11.4.1}{}}
\citation{Gao2016}
\citation{Gao2016}
\citation{Gao2016}
\citation{Gar2015}
\citation{marchi2017deep}
\citation{marchi2017deep}
\citation{marchi2017deep}
\citation{Hin2006}
\citation{zhuang2015supervised}
\citation{Daa2006,Che2005}
\citation{Daa2006,Che2005}
\citation{zhuang2015supervised}
\citation{Bra2014}
\citation{Nav2015}
\citation{Xie2016_dl}
\citation{vandermaaten_2009}
\citation{Ama2013,Ha2014,Yu2016,Sza2013,Mag2013,Fro2012,Li2012,Bak2016}
\citation{Dur2006}
\citation{Pap2004,Dur2006}
\citation{Dav2016,Gao2016,Gaw2016}
\citation{Gaw2016}
\citation{Dav2016,Gao2016,Gaw2016}
\citation{Zha2016,Zon2012,Gru2014,Lod2015}
\citation{Zha2016}
\citation{Bak2016,Gar2015}
\citation{Dav2017,Gao2016,Now1976}
\citation{LiY2012,Gao2016,Xu2012,Yu_2014}
\citation{Hou2012,LiY2012,Nav2011,Wan2014,Xu2012,Yu_2014}
\citation{Bak2016,Gar2015,Zha2016,Zhang2013}
\citation{Ube2009a}
\citation{Ube2009a,Sol2002}
\citation{Ube2009a}
\citation{Orh2011}
\citation{Ube2009a}
\citation{McC1988}
\citation{DLB_2016}
\citation{Ang2016}
\citation{Geo2012}
\citation{Min2016,DLB_2016,Ang2016}
\citation{Ang2016}
\citation{Ali2015,Wan2015,Zho2015,Ang2016,Kel2016}
\citation{Ang2016}
\citation{Ang2016}
\citation{Hin2006}
\citation{Hin2006}
\citation{Mia2016}
\citation{zam_dl2015}
\citation{Del2015,Mia2016}
\citation{Zha2017,Opd2016}
\citation{Nod2015,Aro2016}
\citation{Gar2015}
\citation{Zhang2013}
\citation{Chi2009}
\citation{Zha2016}
\citation{Zha2016}
\citation{Zha2016}
\citation{Sat2011}
\citation{Mag2013}
\citation{Ai2016}
\citation{Kru2012,Fro2012}
\citation{Sza2013}
\citation{Boe2012}
\citation{Yu2016}
\citation{Oes2013,Oes2014}
\citation{Ha2014}
\citation{Vit2017}
\citation{McP2016}
\citation{Gao2016}
\citation{Bas2015}
\citation{Yu_2014}
\citation{Loh2014}
\citation{Wan2014}
\citation{Wan2014}
\citation{Ni2014}
\citation{Cai2014}
\citation{Fra2014}
\citation{Pap2014}
\citation{Hug2014}
\citation{Gaw2014}
\citation{Pot2013}
\citation{Hei2013}
\citation{Ni_2013}
\citation{Hou2012}
\citation{Xu2012}
\citation{Jan2012}
\citation{Li_2012}
\citation{Nav2011}
\citation{Vit2017}
\citation{Bas2015}
\citation{Vit2017}
\citation{Bas2015}
\citation{Gao2016}
\citation{Gao2016}
\citation{Zha2016}
\citation{Mil2011}
\citation{Lov2011}
\citation{Bak2016}
\citation{Zha2016}
\citation{Bak2016}
\citation{Lov2011}
\citation{Sza2013}
\citation{Sza2013}
\citation{Lov2011}
\citation{Bak2016}
\citation{Mil2011}
\citation{Lin2013}
\citation{Samp2011}
\citation{Mil2011}
\citation{Zha2016}
\citation{Mil2011}
\bibstyle{plain}
\bibdata{write-up}
\bibcite{Ai2016}{{1}{}{{}}{{}}}
\bibcite{Ama2013}{{2}{}{{}}{{}}}
\bibcite{Ang2016}{{3}{}{{}}{{}}}
\bibcite{Aro2016}{{4}{}{{}}{{}}}
\bibcite{Bak2016}{{5}{}{{}}{{}}}
\bibcite{Bas2012}{{6}{}{{}}{{}}}
\bibcite{Bas2015}{{7}{}{{}}{{}}}
\bibcite{Boe2012}{{8}{}{{}}{{}}}
\bibcite{Bra2014}{{9}{}{{}}{{}}}
\bibcite{Cai2014}{{10}{}{{}}{{}}}
\bibcite{Che2005}{{11}{}{{}}{{}}}
\bibcite{Chi2009}{{12}{}{{}}{{}}}
\bibcite{Keu2016}{{13}{}{{}}{{}}}
\bibcite{Cir2013}{{14}{}{{}}{{}}}
\bibcite{coates_dl2011}{{15}{}{{}}{{}}}
\bibcite{Daa2006}{{16}{}{{}}{{}}}
\bibcite{Dav2017}{{17}{}{{}}{{}}}
\bibcite{Dav2016}{{18}{}{{}}{{}}}
\bibcite{Dey2015}{{19}{}{{}}{{}}}
\bibcite{Dil2016_dl}{{20}{}{{}}{{}}}
\bibcite{Dil2016}{{21}{}{{}}{{}}}
\bibcite{Dur2006}{{22}{}{{}}{{}}}
\bibcite{Fra2014}{{23}{}{{}}{{}}}
\bibcite{Fro2012}{{24}{}{{}}{{}}}
\bibcite{Gao2016}{{25}{}{{}}{{}}}
\bibcite{Gar2015}{{26}{}{{}}{{}}}
\bibcite{Gaw2014}{{27}{}{{}}{{}}}
\bibcite{Gaw2016}{{28}{}{{}}{{}}}
\bibcite{DLB_2016}{{29}{}{{}}{{}}}
\bibcite{Gru2014}{{30}{}{{}}{{}}}
\bibcite{Ha2014}{{31}{}{{}}{{}}}
\bibcite{Hei2013}{{32}{}{{}}{{}}}
\bibcite{Lar2016}{{33}{}{{}}{{}}}
\bibcite{Hin2006}{{34}{}{{}}{{}}}
\bibcite{Geo2012}{{35}{}{{}}{{}}}
\bibcite{Hol2014}{{36}{}{{}}{{}}}
\bibcite{Hou2012}{{37}{}{{}}{{}}}
\bibcite{Hug2014}{{38}{}{{}}{{}}}
\bibcite{Iva2010}{{39}{}{{}}{{}}}
\bibcite{jiang_dl2016}{{40}{}{{}}{{}}}
\bibcite{Pap2004}{{41}{}{{}}{{}}}
\bibcite{Kir2016_dl}{{42}{}{{}}{{}}}
\bibcite{Ser2016}{{43}{}{{}}{{}}}
\bibcite{Kru2012}{{44}{}{{}}{{}}}
\bibcite{lange2010deep}{{45}{}{{}}{{}}}
\bibcite{Li2012}{{46}{}{{}}{{}}}
\bibcite{Xia2016}{{47}{}{{}}{{}}}
\bibcite{Li_2012}{{48}{}{{}}{{}}}
\bibcite{LiY2012}{{49}{}{{}}{{}}}
\bibcite{Lin2013}{{50}{}{{}}{{}}}
\bibcite{Lod2015}{{51}{}{{}}{{}}}
\bibcite{Loh2014}{{52}{}{{}}{{}}}
\bibcite{Lov2011}{{53}{}{{}}{{}}}
\bibcite{Mag2013}{{54}{}{{}}{{}}}
\bibcite{Jan2012}{{55}{}{{}}{{}}}
\bibcite{McC1988}{{56}{}{{}}{{}}}
\bibcite{McP2016}{{57}{}{{}}{{}}}
\bibcite{Mia2016}{{58}{}{{}}{{}}}
\bibcite{Mil2011}{{59}{}{{}}{{}}}
\bibcite{Min2016}{{60}{}{{}}{{}}}
\bibcite{Nav2011}{{61}{}{{}}{{}}}
\bibcite{Nav2014}{{62}{}{{}}{{}}}
\bibcite{Nav2015}{{63}{}{{}}{{}}}
\bibcite{neuner2015design}{{64}{}{{}}{{}}}
\bibcite{Ng2001}{{65}{}{{}}{{}}}
\bibcite{Ni2014}{{66}{}{{}}{{}}}
\bibcite{Ni_2013}{{67}{}{{}}{{}}}
\bibcite{Nod2015}{{68}{}{{}}{{}}}
\bibcite{Now1976}{{69}{}{{}}{{}}}
\bibcite{Oes2013}{{70}{}{{}}{{}}}
\bibcite{Oes2014}{{71}{}{{}}{{}}}
\bibcite{Opd2016}{{72}{}{{}}{{}}}
\bibcite{Ord2016}{{73}{}{{}}{{}}}
\bibcite{Orh2011}{{74}{}{{}}{{}}}
\bibcite{Owhadi2015_dl}{{75}{}{{}}{{}}}
\bibcite{Pap2014}{{76}{}{{}}{{}}}
\bibcite{Pot2013}{{77}{}{{}}{{}}}
\bibcite{Rot2016}{{78}{}{{}}{{}}}
\bibcite{Samp2011}{{79}{}{{}}{{}}}
\bibcite{Sat2011}{{80}{}{{}}{{}}}
\bibcite{schluter2014improved}{{81}{}{{}}{{}}}
\bibcite{Sin2016}{{82}{}{{}}{{}}}
\bibcite{Sol2002}{{83}{}{{}}{{}}}
\bibcite{Sza2013}{{84}{}{{}}{{}}}
\bibcite{Del2015}{{85}{}{{}}{{}}}
\bibcite{Tib2001}{{86}{}{{}}{{}}}
\bibcite{Ube2009a}{{87}{}{{}}{{}}}
\bibcite{Vin2010_dl}{{88}{}{{}}{{}}}
\bibcite{Vit2017}{{89}{}{{}}{{}}}
\bibcite{wang_dl2017}{{90}{}{{}}{{}}}
\bibcite{Wan2015}{{91}{}{{}}{{}}}
\bibcite{Wan2014}{{92}{}{{}}{{}}}
\bibcite{Wie2016}{{93}{}{{}}{{}}}
\bibcite{Xie2016_dl}{{94}{}{{}}{{}}}
\bibcite{Xu2012}{{95}{}{{}}{{}}}
\bibcite{yang_dl2016}{{96}{}{{}}{{}}}
\bibcite{Yu_2014}{{97}{}{{}}{{}}}
\bibcite{Yu2016}{{98}{}{{}}{{}}}
\bibcite{zam_dl2015}{{99}{}{{}}{{}}}
\bibcite{Zha2016}{{100}{}{{}}{{}}}
\bibcite{Zhang2013}{{101}{}{{}}{{}}}
\bibcite{Zha2017}{{102}{}{{}}{{}}}
\bibcite{Zon2012}{{103}{}{{}}{{}}}
\providecommand\NAT@force@numbers{}\NAT@force@numbers
