PWD /Users/ashleymaeconard/Desktop/singleCell/single-cell-cnv-inference/current_version_paper
INPUT /usr/local/texlive/2016/texmf.cnf
INPUT /usr/local/texlive/2016/texmf-dist/web2c/texmf.cnf
INPUT /usr/local/texlive/2016/texmf-var/web2c/pdftex/pdflatex.fmt
INPUT /Users/ashleymaeconard/Desktop/singleCell/single-cell-cnv-inference/current_version_paper/write-up.tex
OUTPUT write-up.log
INPUT /usr/local/texlive/2016/texmf-dist/tex/latex/base/article.cls
INPUT /usr/local/texlive/2016/texmf-dist/tex/latex/base/article.cls
INPUT /usr/local/texlive/2016/texmf-dist/tex/latex/base/size12.clo
INPUT /usr/local/texlive/2016/texmf-dist/tex/latex/base/size12.clo
INPUT /usr/local/texlive/2016/texmf-dist/fonts/map/fontname/texfonts.map
INPUT /usr/local/texlive/2016/texmf-dist/fonts/tfm/public/cm/cmr12.tfm
INPUT /usr/local/texlive/2016/texmf-dist/tex/latex/geometry/geometry.sty
INPUT /usr/local/texlive/2016/texmf-dist/tex/latex/geometry/geometry.sty
INPUT /usr/local/texlive/2016/texmf-dist/tex/latex/graphics/keyval.sty
INPUT /usr/local/texlive/2016/texmf-dist/tex/latex/graphics/keyval.sty
INPUT /usr/local/texlive/2016/texmf-dist/tex/generic/oberdiek/ifpdf.sty
INPUT /usr/local/texlive/2016/texmf-dist/tex/generic/oberdiek/ifpdf.sty
INPUT /usr/local/texlive/2016/texmf-dist/tex/generic/oberdiek/ifvtex.sty
INPUT /usr/local/texlive/2016/texmf-dist/tex/generic/oberdiek/ifvtex.sty
INPUT /usr/local/texlive/2016/texmf-dist/tex/generic/ifxetex/ifxetex.sty
INPUT /usr/local/texlive/2016/texmf-dist/tex/generic/ifxetex/ifxetex.sty
INPUT /usr/local/texlive/2016/texmf-dist/tex/latex/natbib/natbib.sty
INPUT /usr/local/texlive/2016/texmf-dist/tex/latex/natbib/natbib.sty
INPUT /usr/local/texlive/2016/texmf-dist/tex/latex/amsmath/amsmath.sty
INPUT /usr/local/texlive/2016/texmf-dist/tex/latex/amsmath/amsmath.sty
INPUT /usr/local/texlive/2016/texmf-dist/tex/latex/amsmath/amstext.sty
INPUT /usr/local/texlive/2016/texmf-dist/tex/latex/amsmath/amstext.sty
INPUT /usr/local/texlive/2016/texmf-dist/tex/latex/amsmath/amsgen.sty
INPUT /usr/local/texlive/2016/texmf-dist/tex/latex/amsmath/amsgen.sty
INPUT /usr/local/texlive/2016/texmf-dist/tex/latex/amsmath/amsbsy.sty
INPUT /usr/local/texlive/2016/texmf-dist/tex/latex/amsmath/amsbsy.sty
INPUT /usr/local/texlive/2016/texmf-dist/tex/latex/amsmath/amsopn.sty
INPUT /usr/local/texlive/2016/texmf-dist/tex/latex/amsmath/amsopn.sty
INPUT /usr/local/texlive/2016/texmf-dist/tex/latex/amsfonts/amsfonts.sty
INPUT /usr/local/texlive/2016/texmf-dist/tex/latex/amsfonts/amsfonts.sty
INPUT /usr/local/texlive/2016/texmf-dist/tex/latex/amsfonts/amssymb.sty
INPUT /usr/local/texlive/2016/texmf-dist/tex/latex/amsfonts/amssymb.sty
INPUT /usr/local/texlive/2016/texmf-dist/tex/latex/amscls/amsthm.sty
INPUT /usr/local/texlive/2016/texmf-dist/tex/latex/amscls/amsthm.sty
INPUT /usr/local/texlive/2016/texmf-dist/tex/latex/l3packages/xfrac/xfrac.sty
INPUT /usr/local/texlive/2016/texmf-dist/tex/latex/l3packages/xfrac/xfrac.sty
INPUT /usr/local/texlive/2016/texmf-dist/tex/latex/l3kernel/expl3.sty
INPUT /usr/local/texlive/2016/texmf-dist/tex/latex/l3kernel/expl3.sty
INPUT /usr/local/texlive/2016/texmf-dist/tex/latex/l3kernel/expl3-code.tex
INPUT /usr/local/texlive/2016/texmf-dist/tex/latex/l3kernel/expl3-code.tex
INPUT /usr/local/texlive/2016/texmf-dist/tex/generic/unicode-data/UnicodeData.txt
INPUT /usr/local/texlive/2016/texmf-dist/tex/generic/unicode-data/CaseFolding.txt
INPUT /usr/local/texlive/2016/texmf-dist/tex/generic/unicode-data/SpecialCasing.txt
INPUT /usr/local/texlive/2016/texmf-dist/tex/latex/l3kernel/l3pdfmode.def
INPUT /usr/local/texlive/2016/texmf-dist/tex/latex/l3kernel/l3pdfmode.def
INPUT /usr/local/texlive/2016/texmf-dist/tex/latex/graphics/graphicx.sty
INPUT /usr/local/texlive/2016/texmf-dist/tex/latex/graphics/graphicx.sty
INPUT /usr/local/texlive/2016/texmf-dist/tex/latex/graphics/graphics.sty
INPUT /usr/local/texlive/2016/texmf-dist/tex/latex/graphics/graphics.sty
INPUT /usr/local/texlive/2016/texmf-dist/tex/latex/graphics/trig.sty
INPUT /usr/local/texlive/2016/texmf-dist/tex/latex/graphics/trig.sty
INPUT /usr/local/texlive/2016/texmf-dist/tex/latex/graphics-cfg/graphics.cfg
INPUT /usr/local/texlive/2016/texmf-dist/tex/latex/graphics-cfg/graphics.cfg
INPUT /usr/local/texlive/2016/texmf-dist/tex/latex/pdftex-def/pdftex.def
INPUT /usr/local/texlive/2016/texmf-dist/tex/latex/pdftex-def/pdftex.def
INPUT /usr/local/texlive/2016/texmf-dist/tex/generic/oberdiek/infwarerr.sty
INPUT /usr/local/texlive/2016/texmf-dist/tex/generic/oberdiek/infwarerr.sty
INPUT /usr/local/texlive/2016/texmf-dist/tex/generic/oberdiek/ltxcmds.sty
INPUT /usr/local/texlive/2016/texmf-dist/tex/generic/oberdiek/ltxcmds.sty
INPUT /usr/local/texlive/2016/texmf-dist/tex/latex/l3packages/l3keys2e/l3keys2e.sty
INPUT /usr/local/texlive/2016/texmf-dist/tex/latex/l3packages/l3keys2e/l3keys2e.sty
INPUT /usr/local/texlive/2016/texmf-dist/tex/latex/base/textcomp.sty
INPUT /usr/local/texlive/2016/texmf-dist/tex/latex/base/textcomp.sty
INPUT /usr/local/texlive/2016/texmf-dist/tex/latex/base/ts1enc.def
INPUT /usr/local/texlive/2016/texmf-dist/tex/latex/base/ts1enc.def
INPUT /usr/local/texlive/2016/texmf-dist/tex/latex/l3packages/xparse/xparse.sty
INPUT /usr/local/texlive/2016/texmf-dist/tex/latex/l3packages/xparse/xparse.sty
INPUT /usr/local/texlive/2016/texmf-dist/tex/latex/l3packages/xtemplate/xtemplate.sty
INPUT /usr/local/texlive/2016/texmf-dist/tex/latex/l3packages/xtemplate/xtemplate.sty
INPUT /usr/local/texlive/2016/texmf-dist/tex/latex/base/latexsym.sty
INPUT /usr/local/texlive/2016/texmf-dist/tex/latex/base/latexsym.sty
INPUT /usr/local/texlive/2016/texmf-dist/tex/latex/graphics/color.sty
INPUT /usr/local/texlive/2016/texmf-dist/tex/latex/graphics/color.sty
INPUT /usr/local/texlive/2016/texmf-dist/tex/latex/graphics-cfg/color.cfg
INPUT /usr/local/texlive/2016/texmf-dist/tex/latex/graphics-cfg/color.cfg
INPUT /usr/local/texlive/2016/texmf-dist/tex/latex/amsfonts/eucal.sty
INPUT /usr/local/texlive/2016/texmf-dist/tex/latex/amsfonts/eucal.sty
INPUT /usr/local/texlive/2016/texmf-dist/tex/latex/amsmath/amscd.sty
INPUT /usr/local/texlive/2016/texmf-dist/tex/latex/amsmath/amscd.sty
INPUT /usr/local/texlive/2016/texmf-dist/tex/latex/tools/bm.sty
INPUT /usr/local/texlive/2016/texmf-dist/tex/latex/tools/bm.sty
INPUT /usr/local/texlive/2016/texmf-dist/tex/latex/wrapfig/wrapfig.sty
INPUT /usr/local/texlive/2016/texmf-dist/tex/latex/wrapfig/wrapfig.sty
INPUT /usr/local/texlive/2016/texmf-dist/tex/latex/algorithm2e/algorithm2e.sty
INPUT /usr/local/texlive/2016/texmf-dist/tex/latex/algorithm2e/algorithm2e.sty
INPUT /usr/local/texlive/2016/texmf-dist/tex/latex/base/ifthen.sty
INPUT /usr/local/texlive/2016/texmf-dist/tex/latex/base/ifthen.sty
INPUT /usr/local/texlive/2016/texmf-dist/tex/latex/tools/xspace.sty
INPUT /usr/local/texlive/2016/texmf-dist/tex/latex/tools/xspace.sty
INPUT /usr/local/texlive/2016/texmf-dist/tex/latex/relsize/relsize.sty
INPUT /usr/local/texlive/2016/texmf-dist/tex/latex/relsize/relsize.sty
INPUT /usr/local/texlive/2016/texmf-dist/tex/latex/hyperref/hyperref.sty
INPUT /usr/local/texlive/2016/texmf-dist/tex/latex/hyperref/hyperref.sty
INPUT /usr/local/texlive/2016/texmf-dist/tex/generic/oberdiek/hobsub-hyperref.sty
INPUT /usr/local/texlive/2016/texmf-dist/tex/generic/oberdiek/hobsub-hyperref.sty
INPUT /usr/local/texlive/2016/texmf-dist/tex/generic/oberdiek/hobsub-hyperref.sty
INPUT /usr/local/texlive/2016/texmf-dist/tex/generic/oberdiek/hobsub-generic.sty
INPUT /usr/local/texlive/2016/texmf-dist/tex/generic/oberdiek/hobsub-generic.sty
INPUT /usr/local/texlive/2016/texmf-dist/tex/latex/oberdiek/auxhook.sty
INPUT /usr/local/texlive/2016/texmf-dist/tex/latex/oberdiek/auxhook.sty
INPUT /usr/local/texlive/2016/texmf-dist/tex/latex/oberdiek/kvoptions.sty
INPUT /usr/local/texlive/2016/texmf-dist/tex/latex/oberdiek/kvoptions.sty
INPUT /usr/local/texlive/2016/texmf-dist/tex/latex/hyperref/pd1enc.def
INPUT /usr/local/texlive/2016/texmf-dist/tex/latex/hyperref/pd1enc.def
INPUT /usr/local/texlive/2016/texmf-dist/tex/latex/latexconfig/hyperref.cfg
INPUT /usr/local/texlive/2016/texmf-dist/tex/latex/latexconfig/hyperref.cfg
INPUT /usr/local/texlive/2016/texmf-dist/tex/latex/url/url.sty
INPUT /usr/local/texlive/2016/texmf-dist/tex/latex/url/url.sty
INPUT /usr/local/texlive/2016/texmf-dist/tex/latex/hyperref/hpdftex.def
INPUT /usr/local/texlive/2016/texmf-dist/tex/latex/hyperref/hpdftex.def
INPUT /usr/local/texlive/2016/texmf-dist/tex/latex/oberdiek/rerunfilecheck.sty
INPUT /usr/local/texlive/2016/texmf-dist/tex/latex/oberdiek/rerunfilecheck.sty
INPUT /usr/local/texlive/2016/texmf-dist/tex/latex/booktabs/booktabs.sty
INPUT /usr/local/texlive/2016/texmf-dist/tex/latex/booktabs/booktabs.sty
INPUT /usr/local/texlive/2016/texmf-dist/tex/latex/caption/caption.sty
INPUT /usr/local/texlive/2016/texmf-dist/tex/latex/caption/caption.sty
INPUT /usr/local/texlive/2016/texmf-dist/tex/latex/caption/caption3.sty
INPUT /usr/local/texlive/2016/texmf-dist/tex/latex/caption/caption3.sty
INPUT /usr/local/texlive/2016/texmf-dist/tex/latex/was/upgreek.sty
INPUT /usr/local/texlive/2016/texmf-dist/tex/latex/was/upgreek.sty
INPUT /usr/local/texlive/2016/texmf-dist/tex/latex/tools/indentfirst.sty
INPUT /usr/local/texlive/2016/texmf-dist/tex/latex/tools/indentfirst.sty
INPUT /usr/local/texlive/2016/texmf-dist/tex/latex/psnfss/courier.sty
INPUT /usr/local/texlive/2016/texmf-dist/tex/latex/psnfss/courier.sty
INPUT /usr/local/texlive/2016/texmf-dist/tex/latex/mathtools/mathtools.sty
INPUT /usr/local/texlive/2016/texmf-dist/tex/latex/mathtools/mathtools.sty
INPUT /usr/local/texlive/2016/texmf-dist/tex/latex/tools/calc.sty
INPUT /usr/local/texlive/2016/texmf-dist/tex/latex/tools/calc.sty
INPUT /usr/local/texlive/2016/texmf-dist/tex/latex/mathtools/mhsetup.sty
INPUT /usr/local/texlive/2016/texmf-dist/tex/latex/mathtools/mhsetup.sty
INPUT write-up.aux
INPUT write-up.aux
OUTPUT write-up.aux
INPUT /usr/local/texlive/2016/texmf-dist/tex/latex/base/ts1cmr.fd
INPUT /usr/local/texlive/2016/texmf-dist/tex/latex/base/ts1cmr.fd
INPUT /usr/local/texlive/2016/texmf-dist/tex/context/base/mkii/supp-pdf.mkii
INPUT /usr/local/texlive/2016/texmf-dist/tex/context/base/mkii/supp-pdf.mkii
INPUT /usr/local/texlive/2016/texmf-dist/tex/latex/oberdiek/epstopdf-base.sty
INPUT /usr/local/texlive/2016/texmf-dist/tex/latex/oberdiek/epstopdf-base.sty
INPUT /usr/local/texlive/2016/texmf-dist/tex/latex/oberdiek/grfext.sty
INPUT /usr/local/texlive/2016/texmf-dist/tex/latex/oberdiek/grfext.sty
INPUT /usr/local/texlive/2016/texmf-dist/tex/latex/latexconfig/epstopdf-sys.cfg
INPUT /usr/local/texlive/2016/texmf-dist/tex/latex/latexconfig/epstopdf-sys.cfg
INPUT /usr/local/texlive/2016/texmf-dist/tex/latex/hyperref/nameref.sty
INPUT /usr/local/texlive/2016/texmf-dist/tex/latex/hyperref/nameref.sty
INPUT /usr/local/texlive/2016/texmf-dist/tex/generic/oberdiek/gettitlestring.sty
INPUT /usr/local/texlive/2016/texmf-dist/tex/generic/oberdiek/gettitlestring.sty
INPUT write-up.out
INPUT write-up.out
INPUT write-up.out
INPUT write-up.out
OUTPUT write-up.pdf
INPUT ./write-up.out
INPUT ./write-up.out
OUTPUT write-up.out
INPUT /usr/local/texlive/2016/texmf-dist/fonts/tfm/public/cm/cmr17.tfm
INPUT /usr/local/texlive/2016/texmf-dist/fonts/tfm/public/cm/cmr12.tfm
INPUT /usr/local/texlive/2016/texmf-dist/fonts/tfm/public/cm/cmmi12.tfm
INPUT /usr/local/texlive/2016/texmf-dist/fonts/tfm/public/cm/cmsy10.tfm
INPUT /usr/local/texlive/2016/texmf-dist/fonts/tfm/public/cm/cmex10.tfm
INPUT /usr/local/texlive/2016/texmf-dist/fonts/tfm/public/amsfonts/cmextra/cmex7.tfm
INPUT /usr/local/texlive/2016/texmf-dist/tex/latex/amsfonts/umsa.fd
INPUT /usr/local/texlive/2016/texmf-dist/tex/latex/amsfonts/umsa.fd
INPUT /usr/local/texlive/2016/texmf-dist/fonts/tfm/public/amsfonts/symbols/msam10.tfm
INPUT /usr/local/texlive/2016/texmf-dist/fonts/tfm/public/amsfonts/symbols/msam10.tfm
INPUT /usr/local/texlive/2016/texmf-dist/fonts/tfm/public/amsfonts/symbols/msam7.tfm
INPUT /usr/local/texlive/2016/texmf-dist/tex/latex/amsfonts/umsb.fd
INPUT /usr/local/texlive/2016/texmf-dist/tex/latex/amsfonts/umsb.fd
INPUT /usr/local/texlive/2016/texmf-dist/fonts/tfm/public/amsfonts/symbols/msbm10.tfm
INPUT /usr/local/texlive/2016/texmf-dist/fonts/tfm/public/amsfonts/symbols/msbm10.tfm
INPUT /usr/local/texlive/2016/texmf-dist/fonts/tfm/public/amsfonts/symbols/msbm7.tfm
INPUT /usr/local/texlive/2016/texmf-dist/tex/latex/base/ulasy.fd
INPUT /usr/local/texlive/2016/texmf-dist/tex/latex/base/ulasy.fd
INPUT /usr/local/texlive/2016/texmf-dist/fonts/tfm/public/latex-fonts/lasy10.tfm
INPUT /usr/local/texlive/2016/texmf-dist/fonts/tfm/public/latex-fonts/lasy10.tfm
INPUT /usr/local/texlive/2016/texmf-dist/fonts/tfm/public/latex-fonts/lasy7.tfm
INPUT /usr/local/texlive/2016/texmf-dist/fonts/tfm/public/cm/cmbx12.tfm
INPUT /usr/local/texlive/2016/texmf-dist/fonts/tfm/public/cm/cmbx10.tfm
INPUT /usr/local/texlive/2016/texmf-dist/fonts/tfm/public/cm/cmbx7.tfm
INPUT /usr/local/texlive/2016/texmf-dist/fonts/tfm/public/cm/cmmib10.tfm
INPUT /usr/local/texlive/2016/texmf-dist/fonts/tfm/public/cm/cmmib10.tfm
INPUT /usr/local/texlive/2016/texmf-dist/fonts/tfm/public/amsfonts/cmextra/cmmib7.tfm
INPUT /usr/local/texlive/2016/texmf-dist/fonts/tfm/public/cm/cmbsy10.tfm
INPUT /usr/local/texlive/2016/texmf-dist/fonts/tfm/public/cm/cmbsy10.tfm
INPUT /usr/local/texlive/2016/texmf-dist/fonts/tfm/public/amsfonts/cmextra/cmbsy7.tfm
INPUT /usr/local/texlive/2016/texmf-dist/fonts/tfm/public/latex-fonts/lasyb10.tfm
INPUT /usr/local/texlive/2016/texmf-dist/fonts/tfm/public/latex-fonts/lasyb10.tfm
INPUT /usr/local/texlive/2016/texmf-dist/fonts/tfm/public/amsfonts/euler/eurm10.tfm
INPUT /usr/local/texlive/2016/texmf-dist/fonts/tfm/public/amsfonts/euler/eurm10.tfm
INPUT /usr/local/texlive/2016/texmf-dist/fonts/tfm/public/amsfonts/euler/eurm7.tfm
INPUT /usr/local/texlive/2016/texmf-dist/fonts/tfm/public/cm/cmr17.tfm
INPUT /usr/local/texlive/2016/texmf-dist/fonts/tfm/public/cm/cmbx12.tfm
INPUT /usr/local/texlive/2016/texmf-dist/fonts/tfm/public/cm/cmti12.tfm
INPUT /usr/local/texlive/2016/texmf-dist/fonts/tfm/public/cm/cmr8.tfm
INPUT /usr/local/texlive/2016/texmf-dist/fonts/tfm/public/cm/cmr6.tfm
INPUT /usr/local/texlive/2016/texmf-dist/fonts/tfm/public/cm/cmmi12.tfm
INPUT /usr/local/texlive/2016/texmf-dist/fonts/tfm/public/cm/cmmi8.tfm
INPUT /usr/local/texlive/2016/texmf-dist/fonts/tfm/public/cm/cmmi6.tfm
INPUT /usr/local/texlive/2016/texmf-dist/fonts/tfm/public/cm/cmsy10.tfm
INPUT /usr/local/texlive/2016/texmf-dist/fonts/tfm/public/cm/cmsy8.tfm
INPUT /usr/local/texlive/2016/texmf-dist/fonts/tfm/public/cm/cmsy6.tfm
INPUT /usr/local/texlive/2016/texmf-dist/fonts/tfm/public/cm/cmex10.tfm
INPUT /usr/local/texlive/2016/texmf-dist/fonts/tfm/public/amsfonts/cmextra/cmex8.tfm
INPUT /usr/local/texlive/2016/texmf-dist/fonts/tfm/public/amsfonts/cmextra/cmex7.tfm
INPUT /usr/local/texlive/2016/texmf-dist/fonts/tfm/public/amsfonts/symbols/msam10.tfm
INPUT /usr/local/texlive/2016/texmf-dist/fonts/tfm/public/amsfonts/symbols/msam10.tfm
INPUT /usr/local/texlive/2016/texmf-dist/fonts/tfm/public/amsfonts/symbols/msam7.tfm
INPUT /usr/local/texlive/2016/texmf-dist/fonts/tfm/public/amsfonts/symbols/msbm10.tfm
INPUT /usr/local/texlive/2016/texmf-dist/fonts/tfm/public/amsfonts/symbols/msbm10.tfm
INPUT /usr/local/texlive/2016/texmf-dist/fonts/tfm/public/amsfonts/symbols/msbm7.tfm
INPUT /usr/local/texlive/2016/texmf-dist/fonts/tfm/public/latex-fonts/lasy10.tfm
INPUT /usr/local/texlive/2016/texmf-dist/fonts/tfm/public/latex-fonts/lasy8.tfm
INPUT /usr/local/texlive/2016/texmf-dist/fonts/tfm/public/latex-fonts/lasy6.tfm
INPUT /usr/local/texlive/2016/texmf-dist/fonts/tfm/public/cm/cmbx12.tfm
INPUT /usr/local/texlive/2016/texmf-dist/fonts/tfm/public/cm/cmbx8.tfm
INPUT /usr/local/texlive/2016/texmf-dist/fonts/tfm/public/cm/cmbx6.tfm
INPUT /usr/local/texlive/2016/texmf-dist/fonts/tfm/public/cm/cmmib10.tfm
INPUT /usr/local/texlive/2016/texmf-dist/fonts/tfm/public/amsfonts/cmextra/cmmib8.tfm
INPUT /usr/local/texlive/2016/texmf-dist/fonts/tfm/public/amsfonts/cmextra/cmmib6.tfm
INPUT /usr/local/texlive/2016/texmf-dist/fonts/tfm/public/cm/cmbsy10.tfm
INPUT /usr/local/texlive/2016/texmf-dist/fonts/tfm/public/amsfonts/cmextra/cmbsy8.tfm
INPUT /usr/local/texlive/2016/texmf-dist/fonts/tfm/public/amsfonts/cmextra/cmbsy6.tfm
INPUT /usr/local/texlive/2016/texmf-dist/fonts/tfm/public/latex-fonts/lasyb10.tfm
INPUT /usr/local/texlive/2016/texmf-dist/fonts/tfm/public/amsfonts/euler/eurm10.tfm
INPUT /usr/local/texlive/2016/texmf-dist/fonts/tfm/public/amsfonts/euler/eurm10.tfm
INPUT /usr/local/texlive/2016/texmf-dist/fonts/tfm/public/amsfonts/euler/eurm7.tfm
INPUT /usr/local/texlive/2016/texmf-var/fonts/map/pdftex/updmap/pdftex.map
INPUT IntegratedGenome.png
INPUT ./IntegratedGenome.png
INPUT ./IntegratedGenome.png
INPUT /usr/local/texlive/2016/texmf-dist/fonts/tfm/public/cm/cmr10.tfm
INPUT pipeline3.png
INPUT ./pipeline3.png
INPUT ./pipeline3.png
INPUT dec.png
INPUT ./dec.png
INPUT ./dec.png
INPUT /usr/local/texlive/2016/texmf-dist/fonts/tfm/public/cm/cmmi10.tfm
INPUT /usr/local/texlive/2016/texmf-dist/fonts/tfm/public/cm/cmsy10.tfm
INPUT /usr/local/texlive/2016/texmf-dist/fonts/tfm/public/cm/cmex10.tfm
INPUT /usr/local/texlive/2016/texmf-dist/fonts/tfm/public/amsfonts/symbols/msam10.tfm
INPUT /usr/local/texlive/2016/texmf-dist/fonts/tfm/public/amsfonts/symbols/msbm10.tfm
INPUT /usr/local/texlive/2016/texmf-dist/fonts/tfm/public/latex-fonts/lasy10.tfm
INPUT /usr/local/texlive/2016/texmf-dist/fonts/tfm/public/cm/cmbx10.tfm
INPUT /usr/local/texlive/2016/texmf-dist/fonts/tfm/public/cm/cmmib10.tfm
INPUT /usr/local/texlive/2016/texmf-dist/fonts/tfm/public/cm/cmbsy10.tfm
INPUT /usr/local/texlive/2016/texmf-dist/fonts/tfm/public/latex-fonts/lasyb10.tfm
INPUT /usr/local/texlive/2016/texmf-dist/fonts/tfm/public/amsfonts/euler/eurm10.tfm
INPUT music.png
INPUT ./music.png
INPUT ./music.png
INPUT music_output.png
INPUT ./music_output.png
INPUT ./music_output.png
INPUT lstm_rnn.png
INPUT ./lstm_rnn.png
INPUT ./lstm_rnn.png
INPUT /usr/local/texlive/2016/texmf-dist/fonts/tfm/public/cm/cmti10.tfm
INPUT example_pipeline.png
INPUT ./example_pipeline.png
INPUT ./example_pipeline.png
INPUT crnn_model.png
INPUT ./crnn_model.png
INPUT ./crnn_model.png
INPUT 3_methods.png
INPUT ./3_methods.png
INPUT ./3_methods.png
INPUT music_output.png
INPUT ./music_output.png
INPUT lstm_rnn.png
INPUT ./lstm_rnn.png
INPUT example_pipeline.png
INPUT ./example_pipeline.png
INPUT /usr/local/texlive/2016/texmf-dist/fonts/tfm/jknappen/ec/tcrm1200.tfm
INPUT hierarchy.png
INPUT ./hierarchy.png
INPUT ./hierarchy.png
INPUT extension_2.png
INPUT ./extension_2.png
INPUT ./extension_2.png
INPUT hierarchy.png
INPUT ./hierarchy.png
INPUT extension_2.png
INPUT ./extension_2.png
INPUT /usr/local/texlive/2016/texmf-dist/tex/latex/psnfss/ot1pcr.fd
INPUT /usr/local/texlive/2016/texmf-dist/tex/latex/psnfss/ot1pcr.fd
INPUT /usr/local/texlive/2016/texmf-dist/fonts/tfm/adobe/courier/pcrr7t.tfm
INPUT /usr/local/texlive/2016/texmf-dist/fonts/vf/adobe/courier/pcrr7t.vf
INPUT /usr/local/texlive/2016/texmf-dist/fonts/tfm/adobe/courier/pcrr8r.tfm
INPUT T457_plots.png
INPUT ./T457_plots.png
INPUT ./T457_plots.png
INPUT 500kb_T7.png
INPUT ./500kb_T7.png
INPUT ./500kb_T7.png
INPUT 500kb_T7.png
INPUT ./500kb_T7.png
INPUT scaling_cells.png
INPUT ./scaling_cells.png
INPUT ./scaling_cells.png
INPUT merged_cells_compare.png
INPUT ./merged_cells_compare.png
INPUT ./merged_cells_compare.png
INPUT merged_normal_cells.png
INPUT ./merged_normal_cells.png
INPUT ./merged_normal_cells.png
INPUT cn_non-2.pdf
INPUT ./cn_non-2.pdf
INPUT ./cn_non-2.pdf
INPUT ploidy_calc.png
INPUT ./ploidy_calc.png
INPUT ./ploidy_calc.png
INPUT 3_autoencoders.png
INPUT ./3_autoencoders.png
INPUT ./3_autoencoders.png
INPUT 3_autoencoders.png
INPUT ./3_autoencoders.png
INPUT /usr/local/texlive/2016/texmf-dist/tex/latex/amsfonts/ueus.fd
INPUT /usr/local/texlive/2016/texmf-dist/tex/latex/amsfonts/ueus.fd
INPUT /usr/local/texlive/2016/texmf-dist/fonts/tfm/public/amsfonts/euler/eusm10.tfm
INPUT /usr/local/texlive/2016/texmf-dist/fonts/tfm/public/amsfonts/euler/eusm10.tfm
INPUT /usr/local/texlive/2016/texmf-dist/fonts/tfm/public/amsfonts/euler/eusm7.tfm
INPUT 40m_6-15k.png
INPUT ./40m_6-15k.png
INPUT ./40m_6-15k.png
INPUT /usr/local/texlive/2016/texmf-dist/fonts/tfm/public/amsfonts/euler/eusm10.tfm
INPUT 60m_6-15k.png
INPUT ./60m_6-15k.png
INPUT ./60m_6-15k.png
INPUT violin_plot_60m_together.pdf
INPUT ./violin_plot_60m_together.pdf
INPUT ./violin_plot_60m_together.pdf
INPUT /usr/local/texlive/2016/texmf-dist/fonts/tfm/public/amsfonts/euler/eurb10.tfm
INPUT /usr/local/texlive/2016/texmf-dist/fonts/tfm/public/amsfonts/euler/eurb10.tfm
INPUT /usr/local/texlive/2016/texmf-dist/fonts/tfm/public/amsfonts/euler/eurb7.tfm
INPUT ann.png
INPUT ./ann.png
INPUT ./ann.png
INPUT convolution.png
INPUT ./convolution.png
INPUT ./convolution.png
INPUT pca_128cells_T5.png
INPUT ./pca_128cells_T5.png
INPUT ./pca_128cells_T5.png
INPUT gao_patient_outcomes.png
INPUT ./gao_patient_outcomes.png
INPUT ./gao_patient_outcomes.png
INPUT /usr/local/texlive/2016/texmf-dist/fonts/tfm/public/amsfonts/euler/eusm10.tfm
INPUT /usr/local/texlive/2016/texmf-dist/fonts/tfm/public/amsfonts/euler/eusm10.tfm
INPUT /usr/local/texlive/2016/texmf-dist/fonts/tfm/public/amsfonts/euler/eusm7.tfm
INPUT /usr/local/texlive/2016/texmf-dist/fonts/tfm/public/cm/cmti8.tfm
INPUT /usr/local/texlive/2016/texmf-dist/fonts/tfm/public/cm/cmti7.tfm
INPUT write-up.bbl
INPUT write-up.bbl
INPUT /usr/local/texlive/2016/texmf-dist/fonts/tfm/public/cm/cmti10.tfm
INPUT /usr/local/texlive/2016/texmf-dist/fonts/tfm/adobe/courier/pcrr7t.tfm
INPUT /usr/local/texlive/2016/texmf-dist/fonts/tfm/public/amsfonts/cmextra/cmex7.tfm
INPUT /usr/local/texlive/2016/texmf-dist/fonts/tfm/public/amsfonts/symbols/msam5.tfm
INPUT /usr/local/texlive/2016/texmf-dist/fonts/tfm/public/amsfonts/symbols/msbm5.tfm
INPUT /usr/local/texlive/2016/texmf-dist/fonts/tfm/public/latex-fonts/lasy5.tfm
INPUT /usr/local/texlive/2016/texmf-dist/fonts/tfm/public/amsfonts/euler/eusm5.tfm
INPUT /usr/local/texlive/2016/texmf-dist/fonts/tfm/public/cm/cmbx5.tfm
INPUT /usr/local/texlive/2016/texmf-dist/fonts/tfm/public/amsfonts/cmextra/cmmib5.tfm
INPUT /usr/local/texlive/2016/texmf-dist/fonts/tfm/public/amsfonts/cmextra/cmbsy5.tfm
INPUT /usr/local/texlive/2016/texmf-dist/fonts/tfm/public/amsfonts/euler/eurm5.tfm
INPUT /usr/local/texlive/2016/texmf-dist/tex/latex/base/omscmr.fd
INPUT /usr/local/texlive/2016/texmf-dist/tex/latex/base/omscmr.fd
INPUT write-up.aux
INPUT ./write-up.out
INPUT ./write-up.out
