\relax 
\providecommand\hyper@newdestlabel[2]{}
\providecommand\HyperFirstAtBeginDocument{\AtBeginDocument}
\HyperFirstAtBeginDocument{\ifx\hyper@anchor\@undefined
\global\let\oldcontentsline\contentsline
\gdef\contentsline#1#2#3#4{\oldcontentsline{#1}{#2}{#3}}
\global\let\oldnewlabel\newlabel
\gdef\newlabel#1#2{\newlabelxx{#1}#2}
\gdef\newlabelxx#1#2#3#4#5#6{\oldnewlabel{#1}{{#2}{#3}}}
\AtEndDocument{\ifx\hyper@anchor\@undefined
\let\contentsline\oldcontentsline
\let\newlabel\oldnewlabel
\fi}
\fi}
\global\let\hyper@last\relax 
\gdef\HyperFirstAtBeginDocument#1{#1}
\providecommand\HyField@AuxAddToFields[1]{}
\providecommand\HyField@AuxAddToCoFields[2]{}
\@writefile{toc}{\contentsline {section}{\numberline {1}Recent Works (no particular order)}{1}{section.1}}
\@writefile{lof}{\contentsline {figure}{\numberline {1}{\ignorespaces Paralleles between DeepChrome and DeepCopy. }}{1}{figure.1}}
\@writefile{lof}{\contentsline {figure}{\numberline {2}{\ignorespaces Figure of model.}}{2}{figure.2}}
\@writefile{lof}{\contentsline {figure}{\numberline {3}{\ignorespaces Figure of model.}}{2}{figure.3}}
\@writefile{lof}{\contentsline {figure}{\numberline {4}{\ignorespaces Figure of model.}}{3}{figure.4}}
\@writefile{lof}{\contentsline {figure}{\numberline {5}{\ignorespaces Figure of CNV impact on gene expression.}}{4}{figure.5}}
\@writefile{lof}{\contentsline {figure}{\numberline {6}{\ignorespaces Figure of model.}}{5}{figure.6}}
\@writefile{lof}{\contentsline {figure}{\numberline {7}{\ignorespaces Figure of model.}}{5}{figure.7}}
\@writefile{lof}{\contentsline {figure}{\numberline {8}{\ignorespaces Figure of model.}}{6}{figure.8}}
\@writefile{lof}{\contentsline {figure}{\numberline {9}{\ignorespaces Figure of model.}}{6}{figure.9}}
\@writefile{lof}{\contentsline {figure}{\numberline {10}{\ignorespaces Figure of model.}}{7}{figure.10}}
\@writefile{lof}{\contentsline {figure}{\numberline {11}{\ignorespaces Figure of model.}}{8}{figure.11}}
\@writefile{lof}{\contentsline {figure}{\numberline {12}{\ignorespaces Figure of stacked denoising-autoencoder.}}{8}{figure.12}}
\@writefile{lof}{\contentsline {figure}{\numberline {13}{\ignorespaces Figure of model.}}{9}{figure.13}}
\@writefile{lof}{\contentsline {figure}{\numberline {14}{\ignorespaces Figure of model.}}{10}{figure.14}}
\@writefile{lof}{\contentsline {figure}{\numberline {15}{\ignorespaces Figure of model.}}{11}{figure.15}}
\@writefile{lof}{\contentsline {figure}{\numberline {16}{\ignorespaces Figure of model.}}{11}{figure.16}}
\@writefile{lof}{\contentsline {figure}{\numberline {17}{\ignorespaces Figure of model.}}{12}{figure.17}}
\@writefile{lof}{\contentsline {figure}{\numberline {18}{\ignorespaces Figure of model.}}{13}{figure.18}}
\@writefile{lof}{\contentsline {figure}{\numberline {19}{\ignorespaces Figure of model.}}{13}{figure.19}}
\@writefile{toc}{\contentsline {section}{\numberline {2}Considered Approaches/ Models}{14}{section.2}}
\@writefile{toc}{\contentsline {section}{\numberline {3}Idea Taken from My Notes}{14}{section.3}}
\@writefile{lof}{\contentsline {figure}{\numberline {20}{\ignorespaces Two models which are EM-like. Need to add papers for model parts.}}{16}{figure.20}}
\newlabel{LastPage}{{}{16}{}{page.16}{}}
\xdef\lastpage@lastpage{16}
\xdef\lastpage@lastpageHy{16}
