\relax 
\citation{Gao2016,Now1976}
\citation{Cir2013}
\citation{Gao2016,Yu2016}
\citation{El-Kebir2016}
\citation{Nav2011,Wan2015}
\citation{Gaw2016,Rot2016}
\citation{Nav2014}
\citation{Ama2013}
\citation{Gaw2016}
\citation{Bak2016,Gar2015,Zha2016,Zhang2013}
\citation{Gaw2016,Hou2012,Loh2014,Ni2014,Wan2014,Xu2012}
\citation{Now1976}
\citation{Dav2017,Gao2016}
\@writefile{toc}{\contentsline {section}{\numberline {1}Introduction}{1}}
\citation{Dav2016,Gao2016,Gaw2016}
\citation{Ama2013,Ha2014,Yu2016,Sza2013,Mag2013,Fro2012,Li2012,Bak2016}
\citation{Dur2006}
\citation{Pap2004,Dur2006}
\@writefile{toc}{\contentsline {section}{\numberline {2}Inferring Copy-Numbers using a Hidden Markov Model}{2}}
\newlabel{sec:formal-hmm}{{2}{2}}
\citation{Dav2016,Gao2016,Gaw2016}
\citation{Gaw2016}
\citation{Dav2016,Gao2016,Gaw2016}
\@writefile{toc}{\contentsline {section}{\numberline {3}Inferring Copy-Numbers Jointly}{3}}
\newlabel{clustering}{{3}{3}}
\citation{Dav2017,Gao2016,Now1976}
\citation{Gaw2016}
\citation{Gar2015}
\citation{Bak2016}
\citation{Zha2016}
\citation{Ama2013,Gaw2016,Li2012}
\citation{Wan2014}
\@writefile{toc}{\contentsline {section}{\numberline {4}Specific Aims}{4}}
\citation{Zha2016,Zon2012,Gru2014,Lod2015}
\citation{Zha2016}
\citation{Bak2016,Gar2015}
\@writefile{toc}{\contentsline {section}{\numberline {5}Preliminary Results}{5}}
\newlabel{simulations}{{5}{5}}
\@writefile{toc}{\contentsline {subsection}{\numberline {5.1}Simulated Instances}{5}}
\@writefile{toc}{\contentsline {subsection}{\numberline {5.2}Method}{5}}
\citation{Dav2017,Gao2016,Now1976}
\citation{LiY2012,Gao2016,Xu2012,Yu_2014}
\citation{Hou2012,LiY2012,Nav2011,Wan2014,Xu2012,Yu_2014}
\@writefile{toc}{\contentsline {subsubsection}{\numberline {5.2.1}Forming Soft CNPs}{6}}
\@writefile{toc}{\contentsline {subsubsection}{\numberline {5.2.2}Forming Hard CNPs using Two Approaches}{6}}
\@writefile{toc}{\contentsline {subsection}{\numberline {5.3}Preliminary Results}{6}}
\newlabel{results}{{5.3}{6}}
\citation{Bak2016,Gar2015,Zha2016,Zhang2013}
\@writefile{lof}{\contentsline {figure}{\numberline {1}{\ignorespaces Scatter plot illustrating the Manhattan distance between the jointly inferred and true CNPs, and between the independently inferred and true CNPs for 40 cells, with different number of clones. There are $n=400$ bins for these CNPs.\relax }}{8}}
\providecommand*\caption@xref[2]{\@setref\relax\@undefined{#1}}
\newlabel{40s}{{1}{8}}
\@writefile{lof}{\contentsline {figure}{\numberline {2}{\ignorespaces Scatter plot illustrating the Manhattan distance between the jointly inferred and true CNPs, and between the independently inferred and true CNPs for 60 cells, with different number of clones. There are $n=400$ bins for these CNPs.\relax }}{9}}
\newlabel{60s}{{2}{9}}
\@writefile{lof}{\contentsline {figure}{\numberline {3}{\ignorespaces Violin plots illustrating the average Manhattan distance between the jointly inferred and true CNPs, and between the independently inferred and true CNPs for 10 instances of 60 cells, with different number of clones.\relax }}{10}}
\newlabel{violin_60m_together}{{3}{10}}
\@writefile{toc}{\contentsline {section}{\numberline {6}Deep Learning with Recurrent Neural Networks}{11}}
\@writefile{lof}{\contentsline {figure}{\numberline {4}{\ignorespaces Illustration of a simple Recurrent Neural Network.\relax }}{11}}
\@writefile{toc}{\contentsline {subsection}{\numberline {6.1}Basic Recurrent Neural Network}{11}}
\@writefile{toc}{\contentsline {subsection}{\numberline {6.2}Ideas}{11}}
\@writefile{toc}{\contentsline {section}{\numberline {7}Table CNV Methods}{11}}
\@writefile{toc}{\contentsline {section}{\numberline {8}Table SCS Datasets}{11}}
\bibstyle{plain}
\bibdata{hmm-bib}
\bibcite{Ama2013}{{1}{}{{}}{{}}}
\bibcite{Bak2016}{{2}{}{{}}{{}}}
\bibcite{Cir2013}{{3}{}{{}}{{}}}
\bibcite{Dav2017}{{4}{}{{}}{{}}}
\bibcite{Dav2016}{{5}{}{{}}{{}}}
\bibcite{Dur2006}{{6}{}{{}}{{}}}
\bibcite{El-Kebir2016}{{7}{}{{}}{{}}}
\bibcite{Fro2012}{{8}{}{{}}{{}}}
\bibcite{Gao2016}{{9}{}{{}}{{}}}
\bibcite{Gar2015}{{10}{}{{}}{{}}}
\bibcite{Gaw2016}{{11}{}{{}}{{}}}
\bibcite{Gru2014}{{12}{}{{}}{{}}}
\bibcite{Ha2014}{{13}{}{{}}{{}}}
\bibcite{Hou2012}{{14}{}{{}}{{}}}
\bibcite{Pap2004}{{15}{}{{}}{{}}}
\bibcite{Li2012}{{16}{}{{}}{{}}}
\bibcite{LiY2012}{{17}{}{{}}{{}}}
\bibcite{Lin2013}{{18}{}{{}}{{}}}
\bibcite{Lod2015}{{19}{}{{}}{{}}}
\bibcite{Loh2014}{{20}{}{{}}{{}}}
\bibcite{Lov2011}{{21}{}{{}}{{}}}
\bibcite{Mag2013}{{22}{}{{}}{{}}}
\bibcite{Mil2011}{{23}{}{{}}{{}}}
\bibcite{Nav2011}{{24}{}{{}}{{}}}
\bibcite{Nav2014}{{25}{}{{}}{{}}}
\bibcite{Ni2014}{{26}{}{{}}{{}}}
\bibcite{Now1976}{{27}{}{{}}{{}}}
\bibcite{Rot2016}{{28}{}{{}}{{}}}
\bibcite{Samp2011}{{29}{}{{}}{{}}}
\bibcite{Sza2013}{{30}{}{{}}{{}}}
\bibcite{Wan2015}{{31}{}{{}}{{}}}
\bibcite{Wan2014}{{32}{}{{}}{{}}}
\bibcite{Xu2012}{{33}{}{{}}{{}}}
\bibcite{Yu_2014}{{34}{}{{}}{{}}}
\bibcite{Yu2016}{{35}{}{{}}{{}}}
\bibcite{Zha2016}{{36}{}{{}}{{}}}
\bibcite{Zhang2013}{{37}{}{{}}{{}}}
\bibcite{Zon2012}{{38}{}{{}}{{}}}
\@writefile{toc}{\contentsline {section}{\numberline {A}Appendix: Specific Simulations}{14}}
\@writefile{toc}{\contentsline {subsection}{\numberline {A.1}Create $k$ Copy-Number Profiles and $m$ Cell Assignments}{14}}
\newlabel{firstStep}{{A.1}{14}}
\citation{Zha2016}
\citation{Mil2011}
\citation{Lov2011}
\citation{Bak2016}
\citation{Zha2016}
\@writefile{toc}{\contentsline {subsection}{\numberline {A.2}Determine Total Number of Reads Per Cell}{15}}
\@writefile{toc}{\contentsline {subsection}{\numberline {A.3}Determine Expected Number of Reads for Each Bin in Each Cell}{15}}
\@writefile{toc}{\contentsline {subsection}{\numberline {A.4}Add Noise to Number of Reads in Each Bin in Each Cell}{15}}
\@writefile{toc}{\contentsline {subsection}{\numberline {A.5}Forward-Backward Algorithm}{15}}
\citation{Bak2016}
\citation{Lov2011}
\citation{Sza2013}
\citation{Sza2013}
\citation{Lov2011}
\citation{Bak2016}
\citation{Mil2011}
\citation{Lin2013}
\@writefile{toc}{\contentsline {subsection}{\numberline {A.6}Clustering and Forming Hard CNPs}{16}}
\newlabel{clusteringFormingHardCNPs}{{A.6}{16}}
\@writefile{toc}{\contentsline {subsection}{\numberline {A.7}Considering Cells Separately}{16}}
\newlabel{cellsSeparately}{{A.7}{16}}
\@writefile{toc}{\contentsline {section}{\numberline {B}Emission Probability}{16}}
\newlabel{NB:emission}{{B}{16}}
\citation{Samp2011}
\citation{Mil2011}
\citation{Zha2016}
\citation{Mil2011}
\providecommand\NAT@force@numbers{}\NAT@force@numbers
\@writefile{toc}{\contentsline {section}{\numberline {C}Using the Negative Binomial to Model Read Counts}{17}}
\newlabel{NB}{{C}{17}}
