\relax 
\providecommand\hyper@newdestlabel[2]{}
\providecommand\HyperFirstAtBeginDocument{\AtBeginDocument}
\HyperFirstAtBeginDocument{\ifx\hyper@anchor\@undefined
\global\let\oldcontentsline\contentsline
\gdef\contentsline#1#2#3#4{\oldcontentsline{#1}{#2}{#3}}
\global\let\oldnewlabel\newlabel
\gdef\newlabel#1#2{\newlabelxx{#1}#2}
\gdef\newlabelxx#1#2#3#4#5#6{\oldnewlabel{#1}{{#2}{#3}}}
\AtEndDocument{\ifx\hyper@anchor\@undefined
\let\contentsline\oldcontentsline
\let\newlabel\oldnewlabel
\fi}
\fi}
\global\let\hyper@last\relax 
\gdef\HyperFirstAtBeginDocument#1{#1}
\providecommand\HyField@AuxAddToFields[1]{}
\providecommand\HyField@AuxAddToCoFields[2]{}
\citation{Gao2016,Now1976}
\citation{Cir2013,Gao2016,Yu2016}
\citation{Nav2011,Wan2015}
\citation{Gao2016,Yu2016}
\citation{Nav2015}
\citation{Gaw2016,Rot2016,chen2016}
\citation{Nav2014}
\citation{Ama2013}
\citation{Gaw2016}
\@writefile{toc}{\contentsline {section}{\numberline {1}Introduction}{1}{section.1}}
\newlabel{intro}{{1}{1}{Introduction}{section.1}{}}
\citation{Bak2016,Gar2015,Zha2016,Zhang2013,poisson_CNV}
\citation{Gaw2016,Hou2012,Loh2014,Ni2014,Wan2014,Xu2012}
\citation{Now1976}
\citation{Dav2017,Gao2016}
\citation{chen2016}
\citation{Zha2016,Gar2015}
\citation{Dav2016,Gao2016,Gaw2016}
\citation{Dav2017,Gao2016,Now1976}
\citation{Gaw2016,Nav2011}
\citation{Gar2015}
\citation{Bak2016}
\citation{Zha2016}
\citation{Ama2013,Gaw2016,Li2012}
\citation{van2010allele,Hol2014}
\citation{Dey2015,stri2017}
\citation{Dey2015}
\@writefile{toc}{\contentsline {subsection}{\numberline {1.1}Specific Aims}{3}{subsection.1.1}}
\citation{Gar2015}
\citation{Bak2016}
\citation{Zha2016}
\citation{poisson_CNV}
\citation{Zhang2013}
\citation{Ols2004,Ols2007}
\citation{Gao2016}
\citation{Gao2016}
\citation{Lod2015}
\citation{Gao2016}
\citation{Gao2016}
\citation{Bak2016}
\citation{Gar2015}
\citation{Gao2016}
\citation{Gao2016}
\@writefile{toc}{\contentsline {section}{\numberline {2}Robustness Issues with Current Methods}{4}{section.2}}
\newlabel{motivation}{{2}{4}{Robustness Issues with Current Methods}{section.2}{}}
\@writefile{toc}{\contentsline {subsection}{\numberline {2.1}Low Concordance Between Ginkgo and AneuFinder}{4}{subsection.2.1}}
\@writefile{lof}{\contentsline {figure}{\numberline {1}{\ignorespaces \leavevmode {\color  {blue}Add T5 normal and change colors. Show for HMM?} A. Illustration of percent similarity (percent of positions with the same copy-number called) calculation used to compare CNP results between Ginkgo and AneuFinder. B. Percent similarity between cells sequenced in patients T4, T5, and T7, between Ginkgo (variable bins) and AneuFinder (change-point). The percentage of cells with a percent similarity below 30\% is denoted in black. C. Log2 copy-number ratio plots as reported by Gao et al.\ 2016\nobreakspace  {}\cite  {Gao2016}. The log2 copy-number ratio is the absolute ratio to the cell ground (i.e.\ the median ratio of that cell) and is \textit  {not} equivalent to the integer copy-number but is conceptually similar. Blue indicates deletion events, white indicates diploid regions, and red indicates amplification events. Clones identified (clone A, B or C) are indicated on the left. Single cells are plotted on the y-axis, and CNVs are plotted on the x-axis, ordered by genomic location. Note that over half of the tumor cells in patient T5 are mostly diploid, and are not shown in B, but are considered in A. D.Several examples of copy-number profiles which correspond to A. Ginkgo occasionally infers extremely unlikely CNVs for very small segments of the genome, which results in small `peaks' throughout CNPs (\xspace  {\bfseries  \sffamily  [Appendix]}\xspace  ), drastically affecting average ploidy calculations. \leavevmode {\color  {blue}Why not L1?}\relax }}{5}{figure.caption.1}}
\providecommand*\caption@xref[2]{\@setref\relax\@undefined{#1}}
\newlabel{T457_plots}{{1}{5}{\ques {Add T5 normal and change colors. Show for HMM?} A. Illustration of percent similarity (percent of positions with the same copy-number called) calculation used to compare CNP results between Ginkgo and AneuFinder. B. Percent similarity between cells sequenced in patients T4, T5, and T7, between Ginkgo (variable bins) and AneuFinder (change-point). The percentage of cells with a percent similarity below 30\% is denoted in black. C. Log2 copy-number ratio plots as reported by Gao et al.\ 2016~\cite {Gao2016}. The log2 copy-number ratio is the absolute ratio to the cell ground (i.e.\ the median ratio of that cell) and is \textit {not} equivalent to the integer copy-number but is conceptually similar. Blue indicates deletion events, white indicates diploid regions, and red indicates amplification events. Clones identified (clone A, B or C) are indicated on the left. Single cells are plotted on the y-axis, and CNVs are plotted on the x-axis, ordered by genomic location. Note that over half of the tumor cells in patient T5 are mostly diploid, and are not shown in B, but are considered in A. D.Several examples of copy-number profiles which correspond to A. Ginkgo occasionally infers extremely unlikely CNVs for very small segments of the genome, which results in small `peaks' throughout CNPs (\todo {Appendix}), drastically affecting average ploidy calculations. \ques {Why not L1?}\relax }{figure.caption.1}{}}
\@writefile{lof}{\contentsline {figure}{\numberline {2}{\ignorespaces Each panel shows the fraction of diploid bins inferred by AneuFinder and Ginkgo methods for 35 normal cells and two merged cells at bin sizes 250KB to 10KB. There are two versions of both methods: AneuFinder change-point (ADNACOPY), AneuFinder (AHMM), Ginkgo fixed bin size (GFIXCP), and Ginkgo variable bin size (GVARCP). Each point is either one of 35 normal cells (2 outliers removed and one is AneuFinder reference), a merged down sampled cell (blue), or merged non-down sampled cell (red). Percent of cells below diploid bin fraction 0.3 are noted in black for 20KB, 15KB, and 10KB.\relax }}{6}{figure.caption.2}}
\newlabel{frac_dip_large}{{2}{6}{Each panel shows the fraction of diploid bins inferred by AneuFinder and Ginkgo methods for 35 normal cells and two merged cells at bin sizes 250KB to 10KB. There are two versions of both methods: AneuFinder change-point (ADNACOPY), AneuFinder (AHMM), Ginkgo fixed bin size (GFIXCP), and Ginkgo variable bin size (GVARCP). Each point is either one of 35 normal cells (2 outliers removed and one is AneuFinder reference), a merged down sampled cell (blue), or merged non-down sampled cell (red). Percent of cells below diploid bin fraction 0.3 are noted in black for 20KB, 15KB, and 10KB.\relax }{figure.caption.2}{}}
\@writefile{toc}{\contentsline {subsection}{\numberline {2.2}Low Concordance Between Cells of Normal Clone at Various Minimum Bin Sizes for AneuFinder and Ginkgo}{6}{subsection.2.2}}
\citation{pfu2017,shl2009,zare2017,xi2011,holl2016,kidd2008,mas2014}
\citation{xi2011}
\citation{pfu2017}
\@writefile{toc}{\contentsline {section}{\numberline {3}Low Precision and Recall for Current Methods}{7}{section.3}}
\citation{Nav2014,Nav2015,Nav2016,chen2016,Cai2014,Gao2016,Bak2016,Gar2015,Zha2016}
\citation{Gao2016}
\citation{Nav2014}
\citation{Nav2014}
\@writefile{lof}{\contentsline {figure}{\numberline {3}{\ignorespaces Simulation results showing how many known small copy-number variations Ginkgo and AneuFinder are able to identify.\relax }}{8}{figure.caption.3}}
\newlabel{sims_gi_an}{{3}{8}{Simulation results showing how many known small copy-number variations Ginkgo and AneuFinder are able to identify.\relax }{figure.caption.3}{}}
\@writefile{toc}{\contentsline {section}{\numberline {4}Consider Cells Jointly to Alleviate scDNA Errors in Individual Cells and Improve scDNA CNP Inference}{8}{section.4}}
\newlabel{cells_jointly}{{4}{8}{Consider Cells Jointly to Alleviate scDNA Errors in Individual Cells and Improve scDNA CNP Inference}{section.4}{}}
\citation{Nav2014}
\citation{chen2016}
\@writefile{toc}{\contentsline {subsection}{\numberline {4.1}scDNA Coverage Uniformity Varies from Cell to Cell}{9}{subsection.4.1}}
\newlabel{point1}{{4.1}{9}{scDNA Coverage Uniformity Varies from Cell to Cell}{subsection.4.1}{}}
\@writefile{lof}{\contentsline {figure}{\numberline {4}{\ignorespaces A. Figure from Navin et al.\ 2014\nobreakspace  {}\cite  {Nav2014} depicting that coverage uniformity varies per cell, and is often more uniform when sequencing a population of cells (i.e.\ bulk sequencing). B. Histogram showing the non-uniform read count distribution for 38 normal cells from Patient T5 and a merged down sampled cell (magenta). This is a real data example of the diagram in A. See \xspace  {\bfseries  \sffamily  [appendix]}\xspace   for read count histogram at 10kb bin size.\xspace  {\bfseries  \sffamily  [Say something about the merged cell when inferred. Use PR.]}\xspace   \leavevmode {\color  {blue}(QQ plot not informative.)}\relax }}{9}{figure.caption.4}}
\newlabel{hist_RC_250kb}{{4}{9}{A. Figure from Navin et al.\ 2014~\cite {Nav2014} depicting that coverage uniformity varies per cell, and is often more uniform when sequencing a population of cells (i.e.\ bulk sequencing). B. Histogram showing the non-uniform read count distribution for 38 normal cells from Patient T5 and a merged down sampled cell (magenta). This is a real data example of the diagram in A. See \todo {appendix} for read count histogram at 10kb bin size.\todo {Say something about the merged cell when inferred. Use PR.} \ques {(QQ plot not informative.)}\relax }{figure.caption.4}{}}
\@writefile{toc}{\contentsline {subsection}{\numberline {4.2}scDNA Errors are Uniformly Distributed and Contribute to False Positive CNVs for Current Methods}{9}{subsection.4.2}}
\newlabel{point2}{{4.2}{9}{scDNA Errors are Uniformly Distributed and Contribute to False Positive CNVs for Current Methods}{subsection.4.2}{}}
\@writefile{toc}{\contentsline {subsection}{\numberline {4.3}Integrate Information Across Cells of the Same Clone to Improve scDNA CNP Inference}{9}{subsection.4.3}}
\newlabel{consider_jointly}{{4.3}{9}{Integrate Information Across Cells of the Same Clone to Improve scDNA CNP Inference}{subsection.4.3}{}}
\@writefile{lof}{\contentsline {figure}{\numberline {5}{\ignorespaces  Bar plot of the frequency of non-2 copy-number calls across the genome for 38 normal cells from patient T5 as produced by Ginkgo variable bins (250KB bin size). Large peaks could be a result of issues including germline copy-numbers, unaddressed GC rich and centromeres. \xspace  {\bfseries  \sffamily  [Make peaks relative.]}\xspace  \relax }}{10}{figure.caption.5}}
\newlabel{cn_non-2}{{5}{10}{Bar plot of the frequency of non-2 copy-number calls across the genome for 38 normal cells from patient T5 as produced by Ginkgo variable bins (250KB bin size). Large peaks could be a result of issues including germline copy-numbers, unaddressed GC rich and centromeres. \todo {Make peaks relative.}\relax }{figure.caption.5}{}}
\@writefile{lof}{\contentsline {figure}{\numberline {6}{\ignorespaces \xspace  {\bfseries  \sffamily  [Change Ginkgo histo.]}\xspace   A. Hierarchical clustering dendrograms (complete linkage and Euclidean distance) comparing vectors of normalized read counts between 8 cells (4 with small CNV(s)- red cells). A. (left) Alone most red cells with the 40KB duplication cluster with black cells, not harboring the small CNV. (right) When all four red cells are considered together, the small CNV is identified and the red cells cluster together. B. Hierarchical clustering dendrograms relating 8 cells using: simple clustering of noisy read count vectors, Ginkgo (variable bins) inferred CNP vectors and AneuFinder methods' CNP vectors. Red cells harbor a small 40KB duplication in chromosome 7. C. Same comparison as in B but red cells also harbor a small 20KB duplication in chromosome 6. D. Same comparison as in B but red cells harbor a small 40KB deletion in the same location of chromosome 7. Overall, simply clustering without copy-number inference and segmentation does better than both methods to identify small CNVs.\relax }}{11}{figure.caption.6}}
\newlabel{sims_results}{{6}{11}{\todo {Change Ginkgo histo.} A. Hierarchical clustering dendrograms (complete linkage and Euclidean distance) comparing vectors of normalized read counts between 8 cells (4 with small CNV(s)- red cells). A. (left) Alone most red cells with the 40KB duplication cluster with black cells, not harboring the small CNV. (right) When all four red cells are considered together, the small CNV is identified and the red cells cluster together. B. Hierarchical clustering dendrograms relating 8 cells using: simple clustering of noisy read count vectors, Ginkgo (variable bins) inferred CNP vectors and AneuFinder methods' CNP vectors. Red cells harbor a small 40KB duplication in chromosome 7. C. Same comparison as in B but red cells also harbor a small 20KB duplication in chromosome 6. D. Same comparison as in B but red cells harbor a small 40KB deletion in the same location of chromosome 7. Overall, simply clustering without copy-number inference and segmentation does better than both methods to identify small CNVs.\relax }{figure.caption.6}{}}
\@writefile{toc}{\contentsline {subsection}{\numberline {4.4}Ginkgo and AneuFinder Do Not Accurately Relate Cells of the Same Clone \leavevmode {\color  {blue}and $\ldots  $}}{11}{subsection.4.4}}
\citation{Xie2016_dl,Vin2010_dl,Owhadi2015_dl,Kir2016_dl,Dil2016_dl}
\@writefile{toc}{\contentsline {section}{\numberline {5}Single-Cell Copy-Number Identification Using Deep Learning}{13}{section.5}}
\newlabel{method}{{5}{13}{Single-Cell Copy-Number Identification Using Deep Learning}{section.5}{}}
\@writefile{lof}{\contentsline {figure}{\numberline {7}{\ignorespaces Approach to jointly infer cell-clone assignments, and clone copy-number profiles.\relax }}{13}{figure.caption.7}}
\newlabel{pipeline3}{{7}{13}{Approach to jointly infer cell-clone assignments, and clone copy-number profiles.\relax }{figure.caption.7}{}}
\@writefile{toc}{\contentsline {section}{\numberline {6}Simultaneous Clustering and Classification of Cancer Cells Afflicted by CNVs, by Considering Cells Jointly}{13}{section.6}}
\citation{Xie2016_dl}
\citation{Xie2016_dl}
\citation{Xie2016_dl}
\@writefile{lof}{\contentsline {figure}{\numberline {8}{\ignorespaces Diagram of Deep Embedded Clustering algorithm with $R$ corrected read count matrix input. Modified diagram from Xie et al.\ 2016\nobreakspace  {}\cite  {Xie2016_dl}. Green box associates this figure with the green box in Figure\nobreakspace  {}\ref  {pipeline3}.\relax }}{14}{figure.caption.8}}
\newlabel{dec}{{8}{14}{Diagram of Deep Embedded Clustering algorithm with $R$ corrected read count matrix input. Modified diagram from Xie et al.\ 2016~\cite {Xie2016_dl}. Green box associates this figure with the green box in Figure~\ref {pipeline3}.\relax }{figure.caption.8}{}}
\@writefile{toc}{\contentsline {subsection}{\numberline {6.1}Feature Extraction and Clustering}{14}{subsection.6.1}}
\citation{Xie2016_dl}
\citation{Xie2016_dl}
\citation{Xie2016_dl}
\citation{MNIST_1998}
\citation{STL-10_2011}
\citation{REUTERS_2004}
\citation{Xie2016_dl}
\citation{Vin2010_dl}
\citation{Hin2006}
\citation{Xie2016_dl}
\citation{Vin2010_dl}
\citation{Xie2016_dl}
\citation{Nav2011,Bas2012,Zha2016}
\citation{schluter2014improved}
\citation{neuner2015design}
\citation{schluter2014improved}
\citation{lyu2016learning,schluter2014improved,neuner2015design,zhang2015degradation}
\citation{schluter2014improved}
\@writefile{lof}{\contentsline {figure}{\numberline {9}{\ignorespaces Depiction of convolutional neural network used to segment multiple musical signals concurrently, along with windowed input and full output depiction.\relax }}{16}{figure.caption.9}}
\newlabel{music}{{9}{16}{Depiction of convolutional neural network used to segment multiple musical signals concurrently, along with windowed input and full output depiction.\relax }{figure.caption.9}{}}
\@writefile{toc}{\contentsline {subsection}{\numberline {6.2}Segmentation for Each Cluster}{16}{subsection.6.2}}
\citation{schluter2014improved}
\citation{schluter2014improved}
\citation{schluter2014improved}
\citation{schluter2014improved}
\citation{schluter2014improved}
\citation{schluter2014improved}
\citation{schluter2014improved}
\citation{schluter2014improved}
\citation{schluter2014improved}
\citation{schluter2014improved}
\citation{schluter2014improved}
\citation{schluter2014improved}
\@writefile{lof}{\contentsline {figure}{\numberline {10}{\ignorespaces Output of CNN for two spectrograms. Gray figure labels indicates parallels to\nobreakspace  {}\cite  {schluter2014improved}. This figure is modified from Schluter et al.\ 2014\nobreakspace  {}\cite  {schluter2014improved}.\relax }}{19}{figure.caption.10}}
\newlabel{music_output}{{10}{19}{Output of CNN for two spectrograms. Gray figure labels indicates parallels to~\cite {schluter2014improved}. This figure is modified from Schluter et al.\ 2014~\cite {schluter2014improved}.\relax }{figure.caption.10}{}}
\citation{Keu2016,sak2014long,mandic2001recurrent}
\@writefile{lof}{\contentsline {figure}{\numberline {11}{\ignorespaces Illustration of a Recurrent Neural Network with \emph  {either} long short-term memory \textit  {or} the hyperbolic tangent function. $i_t$ is the input gate, $f_t$ is the forget gate, and $o_t$ is the output gate.\relax }}{20}{figure.caption.11}}
\newlabel{lstm_rnn}{{11}{20}{Illustration of a Recurrent Neural Network with \emph {either} long short-term memory \textit {or} the hyperbolic tangent function. $i_t$ is the input gate, $f_t$ is the forget gate, and $o_t$ is the output gate.\relax }{figure.caption.11}{}}
\@writefile{toc}{\contentsline {subsection}{\numberline {6.3}Compute $f$ for Each Cluster}{20}{subsection.6.3}}
\citation{marchi2017deep}
\@writefile{toc}{\contentsline {subsection}{\numberline {6.4}Produce $P$}{21}{subsection.6.4}}
\citation{Ord2016}
\@writefile{lof}{\contentsline {figure}{\numberline {12}{\ignorespaces Illustration of proposed method.\leavevmode {\color  {blue}Change this figure to be more correct.}\relax }}{22}{figure.caption.12}}
\newlabel{example_pipeline}{{12}{22}{Illustration of proposed method.\ques {Change this figure to be more correct.}\relax }{figure.caption.12}{}}
\@writefile{toc}{\contentsline {section}{\numberline {7}Alternative Approach to Assign Copy-Number Directly to Cells Without Segmentation}{22}{section.7}}
\newlabel{other_segmentation_methods}{{7}{22}{Alternative Approach to Assign Copy-Number Directly to Cells Without Segmentation}{section.7}{}}
\@writefile{lof}{\contentsline {figure}{\numberline {13}{\ignorespaces Schematic diagram of a CRNN with $l$ convolution layers, 2 recurrent, and one softmax layer. Both a form of segmentation and classification are learned during training.\relax }}{22}{figure.caption.13}}
\newlabel{crnn_model}{{13}{22}{Schematic diagram of a CRNN with $l$ convolution layers, 2 recurrent, and one softmax layer. Both a form of segmentation and classification are learned during training.\relax }{figure.caption.13}{}}
\@writefile{toc}{\contentsline {subsection}{\numberline {7.1}Comparison between LSTM RNN, CNN, and CRNN}{22}{subsection.7.1}}
\citation{wang_dl2017}
\citation{zeng2014_dl}
\citation{yang_dl2016}
\citation{wang_dl2017}
\citation{wang_dl2017}
\@writefile{toc}{\contentsline {section}{\numberline {8}Related Work on Similar Iterative Deep Learning Approaches}{23}{section.8}}
\@writefile{lof}{\contentsline {figure}{\numberline {14}{\ignorespaces Three iterative methods for joint feature selection, clustering, and classification.\relax }}{23}{figure.caption.14}}
\newlabel{3_methods}{{14}{23}{Three iterative methods for joint feature selection, clustering, and classification.\relax }{figure.caption.14}{}}
\citation{}
\citation{tuytelaars2010unsupervised}
\citation{wang_dl2017}
\citation{zeng2014_dl}
\citation{yang_dl2016}
\bibstyle{plain}
\bibdata{write-up}
\bibcite{Ama2013}{{1}{}{{}}{{}}}
\bibcite{Bak2016}{{2}{}{{}}{{}}}
\bibcite{Bas2012}{{3}{}{{}}{{}}}
\bibcite{Cai2014}{{4}{}{{}}{{}}}
\bibcite{chen2016}{{5}{}{{}}{{}}}
\bibcite{Keu2016}{{6}{}{{}}{{}}}
\bibcite{Cir2013}{{7}{}{{}}{{}}}
\bibcite{STL-10_2011}{{8}{}{{}}{{}}}
\bibcite{Dav2017}{{9}{}{{}}{{}}}
\bibcite{Dav2016}{{10}{}{{}}{{}}}
\bibcite{Dey2015}{{11}{}{{}}{{}}}
\bibcite{Dil2016_dl}{{12}{}{{}}{{}}}
\bibcite{Gao2016}{{13}{}{{}}{{}}}
\bibcite{Gar2015}{{14}{}{{}}{{}}}
\bibcite{Gaw2016}{{15}{}{{}}{{}}}
\bibcite{Hin2006}{{16}{}{{}}{{}}}
\bibcite{holl2016}{{17}{}{{}}{{}}}
\bibcite{Hol2014}{{18}{}{{}}{{}}}
\bibcite{Hou2012}{{19}{}{{}}{{}}}
\bibcite{kidd2008}{{20}{}{{}}{{}}}
\bibcite{Kir2016_dl}{{21}{}{{}}{{}}}
\bibcite{MNIST_1998}{{22}{}{{}}{{}}}
\bibcite{REUTERS_2004}{{23}{}{{}}{{}}}
\bibcite{Li2012}{{24}{}{{}}{{}}}
\bibcite{Lod2015}{{25}{}{{}}{{}}}
\bibcite{Loh2014}{{26}{}{{}}{{}}}
\bibcite{lyu2016learning}{{27}{}{{}}{{}}}
\bibcite{mandic2001recurrent}{{28}{}{{}}{{}}}
\bibcite{marchi2017deep}{{29}{}{{}}{{}}}
\bibcite{mas2014}{{30}{}{{}}{{}}}
\bibcite{Nav2011}{{31}{}{{}}{{}}}
\bibcite{Nav2014}{{32}{}{{}}{{}}}
\bibcite{Nav2015}{{33}{}{{}}{{}}}
\bibcite{Nav2016}{{34}{}{{}}{{}}}
\bibcite{neuner2015design}{{35}{}{{}}{{}}}
\bibcite{Ni2014}{{36}{}{{}}{{}}}
\bibcite{Now1976}{{37}{}{{}}{{}}}
\bibcite{Ols2004}{{38}{}{{}}{{}}}
\bibcite{Ord2016}{{39}{}{{}}{{}}}
\bibcite{Owhadi2015_dl}{{40}{}{{}}{{}}}
\bibcite{pfu2017}{{41}{}{{}}{{}}}
\bibcite{Rot2016}{{42}{}{{}}{{}}}
\bibcite{sak2014long}{{43}{}{{}}{{}}}
\bibcite{schluter2014improved}{{44}{}{{}}{{}}}
\bibcite{shl2009}{{45}{}{{}}{{}}}
\bibcite{tuytelaars2010unsupervised}{{46}{}{{}}{{}}}
\bibcite{van2010allele}{{47}{}{{}}{{}}}
\bibcite{stri2017}{{48}{}{{}}{{}}}
\bibcite{Ols2007}{{49}{}{{}}{{}}}
\bibcite{Vin2010_dl}{{50}{}{{}}{{}}}
\bibcite{wang_dl2017}{{51}{}{{}}{{}}}
\bibcite{Wan2015}{{52}{}{{}}{{}}}
\bibcite{Wan2014}{{53}{}{{}}{{}}}
\bibcite{xi2011}{{54}{}{{}}{{}}}
\bibcite{Xie2016_dl}{{55}{}{{}}{{}}}
\bibcite{poisson_CNV}{{56}{}{{}}{{}}}
\bibcite{Xu2012}{{57}{}{{}}{{}}}
\bibcite{yang_dl2016}{{58}{}{{}}{{}}}
\bibcite{Yu2016}{{59}{}{{}}{{}}}
\bibcite{zare2017}{{60}{}{{}}{{}}}
\bibcite{zeng2014_dl}{{61}{}{{}}{{}}}
\bibcite{Zha2016}{{62}{}{{}}{{}}}
\bibcite{Zhang2013}{{63}{}{{}}{{}}}
\bibcite{zhang2015degradation}{{64}{}{{}}{{}}}
\providecommand\NAT@force@numbers{}\NAT@force@numbers
